{
  "profiles": {
    "ConsoleAppB": {
      "commandName": "Project",
      "commandLineArgs": "b_should_be_easy.in b_should_be_easy.out"
    },
    "ConsoleAppC": {
      "commandName": "Project",
      "commandLineArgs": "c_no_hurry.in c_no_hurry.out"
    },
    "ConsoleAppD": {
      "commandName": "Project",
      "commandLineArgs": "d_metropolis.in d_metropolis.out"
    },
    "ConsoleAppE": {
      "commandName": "Project",
      "commandLineArgs": "e_high_bonus.in e_high_bonus.out"
    },
    "ConsoleAppA": {
      "commandName": "Project",
      "commandLineArgs": "a_example.in a_example.out"
    }
  }
}