67 7024 6492 9577 5421 3871 4899 4681 9313 3834 3936 756 5088 8033 2716 7686 6569 8956 9972 4322 4258 4012 6303 1366 3844 5502 6577 7771 4568 8832 6470 6351 2030 7484 8126 8710 4639 8721 4384 412 571 6380 8382 7752 9678 6478 4019 3377 6165 9133 3828 8362 7528 2562 1362 5099 1951 1707 2456 9740 2627 6966 1397 8016 7299 3641 8398 9166
65 574 9128 1402 1799 9115 790 3081 2757 2650 1081 6910 3026 4879 3849 4871 1453 3211 3260 4870 4766 516 4092 5670 1600 7629 7178 6145 8605 3230 7877 503 5529 7420 1136 5224 4145 9951 1398 6152 6261 2888 1053 2938 6754 7523 4008 4761 3232 532 332 3336 1662 1513 8735 5610 6576 5777 6617 6496 226 604 5629 871 4994 4587
66 699 8075 6542 5736 240 7534 6248 3817 1558 5999 9724 9288 7614 3236 9333 1931 3287 4683 7428 9963 8833 9381 4957 5600 6057 199 4393 1561 7622 11 3132 1877 2253 1550 6226 3741 7999 7156 7301 7862 8911 2441 6029 8367 8074 7374 9186 7511 7295 8591 2393 5676 6039 1165 7820 1883 5454 5119 7612 31 3275 9850 6375 528 1471 8356
71 6373 4380 1886 955 1747 5028 2097 7165 4750 2116 5155 8499 2921 6016 1856 4156 9518 7294 252 9483 1514 8661 9316 8702 4436 2274 1552 290 2561 6100 5443 849 4100 5215 2934 6932 6257 5342 7436 522 8576 3616 2543 444 4677 1318 9455 3515 5397 3104 4850 3660 7480 7125 1071 3821 3620 5583 2142 9379 5258 9989 4592 3403 2506 5720 3172 2335 9062 4846 5304
63 3545 8767 3121 2198 4476 6861 8176 1185 2492 8589 9779 1715 9024 3115 6643 3334 6874 7945 6773 358 4617 3794 5753 5082 4500 9344 801 1620 4970 7658 2430 232 2248 5992 3601 5127 5513 2588 1382 6767 1334 4603 5464 3612 1695 3267 364 5148 8416 135 5683 5942 9205 9411 2667 1163 1607 5963 192 213 8254 1764 7285
65 5037 4383 474 7788 6814 2470 250 4435 6923 1711 2309 6893 7266 1459 8712 3864 6559 8559 1031 9321 1062 6565 7382 586 9614 2207 5564 6811 6093 5362 8171 7498 952 641 999 9005 9348 4618 2313 256 5857 5045 2770 3523 8145 3865 3797 8749 8788 5097 3109 1820 1188 7316 4691 7542 8263 9507 3151 3032 6912 489 1311 5107 3814
64 4131 6281 9345 7477 22 3229 9199 9022 7547 3318 558 6976 8404 8524 5582 1260 8969 2017 6644 4464 8722 3793 6119 3057 4580 8850 2007 7091 3562 8023 1757 5625 5910 4922 7124 5405 5239 1612 9267 5015 107 6705 8451 133 6857 4544 9777 6978 6663 9221 642 8912 5804 1743 7647 6627 4273 550 7561 6955 6922 8479 7435 6552
65 8727 9941 3271 5370 9431 3807 4812 3855 6429 5124 3103 2996 3969 8087 1817 7488 9696 1084 2173 8373 8240 1233 4132 3982 9223 1027 198 2960 1225 4635 9074 5125 6753 609 6180 4295 6720 1533 5844 7372 6750 7246 4882 4820 1418 2720 7906 7100 5299 1787 3703 1997 4430 9525 446 3231 4382 4373 4767 6745 7578 467 5721 9422 6271
67 2355 2980 8507 9428 4098 89 779 7261 5044 6758 6428 1041 6519 4669 7567 4062 6837 1629 1306 3029 5760 8139 4811 6448 9135 3477 4546 6104 9106 3150 5959 7810 9308 6991 8679 3351 7269 5934 8758 8604 2869 938 7853 3665 9209 9519 9968 3408 5016 266 8962 1127 968 959 2936 8190 5417 9016 8502 9590 5633 6809 8446 9898 305 7531 3135
65 7787 6485 8296 5961 6686 5298 9978 5123 6012 5949 2904 4679 9060 3396 3609 8275 925 8196 6487 9481 9557 780 1414 4931 1 2836 1640 7697 1410 442 9442 7031 7202 8232 3813 9595 3953 8711 9 8972 6027 8923 3838 1842 3770 9651 7081 246 7538 1025 7218 1714 8757 9583 7414 4574 1882 3417 8208 7380 9331 3732 9874 747 4985
64 7706 1784 5207 6719 3083 3763 7074 8579 7121 9123 7619 7860 6841 2797 8131 6240 3159 7083 8039 2440 4109 7258 7314 2985 3984 1065 7130 7768 5818 8413 2199 2794 7704 8375 7606 463 8258 5752 2259 7148 9566 9971 6854 3787 5261 6761 5340 7636 4963 2140 2264 7980 8653 2776 7286 7744 3195 5153 3340 5157 2491 529 460 7321
63 9213 8163 8298 2191 2048 9363 8067 8487 7501 9663 400 7169 7195 1241 2688 5197 5111 6336 6064 8936 9183 7694 1379 997 175 2175 8111 1663 806 5840 4698 241 2728 4439 1692 4489 3757 9227 6729 877 5917 7355 828 1422 3381 1746 1822 2382 1183 6657 4127 7515 662 2618 653 449 8583 2585 5883 5182 8492 3967 5587
64 5439 4328 7597 7796 7522 4919 2652 3285 9758 338 2108 4848 9816 1863 2363 8328 9139 1024 4511 9765 5598 9454 839 3407 514 8477 7217 5850 1111 7069 7931 4157 276 4787 4125 5679 2821 2131 4396 7463 1967 6043 3883 3190 4228 9813 685 3623 3921 1905 9224 8872 7848 6575 3430 3058 6022 2083 8793 9329 6951 4611 8577 294
64 7329 8645 5297 1555 1601 7792 2923 1456 4588 817 3452 9923 3038 258 464 7379 6493 6265 1576 340 5914 7902 4640 5798 2010 4914 308 4897 6630 1416 2415 5890 3224 6631 7913 7583 6315 9935 347 8771 4497 1378 4547 6314 2942 4446 2974 6805 3170 7657 7775 2360 6 7661 3166 2884 1802 9517 870 3491 1047 4576 273 6919
60 9035 8224 9233 7128 6971 7431 7791 887 1971 3384 1039 1954 209 5524 7274 9337 4339 8035 580 6134 915 7990 4432 3012 3508 1489 6895 3744 2481 3587 3886 4894 6327 4981 6952 4442 177 4876 8266 5776 3228 823 4289 4079 8603 2628 8407 243 8432 420 4286 9395 3220 1113 638 4029 7409 1399 8198 1193
67 1523 3451 4560 8984 6689 5007 7336 153 8165 2736 8437 4026 8797 9853 7765 4910 1675 7357 5363 7736 8564 5989 9435 101 1444 6393 6987 2051 2208 1091 1291 4425 5660 206 3669 9493 3694 6252 7032 6997 7711 2496 6743 1139 1638 8586 9296 2100 9275 7565 552 6866 6216 4670 2773 8475 3668 5931 6670 7781 2453 3304 2910 1107 8929 3106 7468
63 4217 9200 8069 7002 7082 6135 855 7756 940 6045 1876 3161 1919 7979 1780 7247 8316 3137 4821 9491 9515 270 4314 6578 7132 2827 3214 3196 6713 1461 4107 8686 1584 5004 7823 9895 5666 2943 215 5712 4736 9846 8210 8637 2803 7786 1942 674 1621 9532 6843 5480 4437 9928 2489 2631 4104 122 8078 3435 711 4166 5169
65 1546 743 7080 6121 6791 6927 1960 2955 9954 3522 1476 3332 8020 9654 3113 7818 5356 5033 2604 1614 985 7102 1283 866 6251 9707 286 3900 9068 5842 4622 261 468 4356 4075 7331 7142 186 6210 8230 5133 4142 7609 1541 9163 4268 4073 8242 9731 8837 9350 2879 1181 6195 8123 9156 7575 5847 5414 4473 706 5265 7882 8777 2708
62 640 9890 4774 8986 7900 3067 1615 4772 8130 2476 1021 4158 9304 4689 2595 778 1963 4376 3087 2178 5907 9467 7857 4335 8954 9842 2823 8049 4461 9931 6263 5351 6815 3658 4655 9542 6514 146 9795 5159 4484 6732 9940 5726 9216 5878 4533 3366 8931 4323 2084 5202 5047 9459 7010 2226 9137 4667 6916 139 75 4917
63 336 2244 7287 8201 9851 6980 5204 5672 4398 865 2592 3183 7641 9636 9021 5567 889 2070 6842 6833 3956 9430 8497 5639 4995 2686 2992 9268 6741 185 3738 9072 1948 8081 6557 6467 2751 8167 8257 1216 8902 6066 8532 5400 3662 3592 4982 4399 8948 8578 4298 7057 8227 5966 5994 1752 2011 5238 657 4528 511 9538 1012
63 2036 8774 2042 6138 4022 5912 6033 5609 1586 2403 1209 8221 2336 2911 1482 4590 5187 6439 9713 6769 5926 842 6239 6213 786 7340 9407 2969 3946 5936 4466 2410 5211 1170 1606 9399 6023 7145 8513 1553 7496 613 1116 8991 3471 8225 8694 8662 4172 8302 5897 4196 5706 6311 1522 3850 6353 5561 6610 8531 7742 3599 6440
65 4479 3791 5497 4276 5606 9914 2284 9903 3348 9040 4913 5919 1987 3003 1200 2200 3652 6372 178 9096 9509 5145 542 3399 1982 8241 6255 1745 2764 5509 3176 8106 3980 1516 3341 3693 14 7193 9215 1830 193 2442 3718 164 5627 6247 2531 1904 9717 651 1487 5565 7131 1098 4650 5020 8472 9834 4507 4204 8974 4488 3069 9341 4828
61 4525 8979 9567 2188 6127 1248 9193 8780 4672 8234 4257 881 4961 3822 3653 2287 5630 291 3709 2093 363 1411 8802 8342 5716 525 3749 9000 3239 3683 5754 9866 8550 9302 7830 2568 5446 8680 4499 4287 2471 8001 3733 1153 4256 7651 7721 8737 9741 5325 1447 5059 7840 2104 8983 6085 342 4080 1690 3680 2645
64 6796 8925 7030 5419 5781 6358 8851 4883 8888 1229 1534 1376 9798 2271 4987 6560 8766 87 6089 9514 9484 8012 1179 7060 6649 8439 6386 7737 2795 7734 3280 8094 204 5518 4017 3289 7361 3013 1940 274 9433 5189 3917 8621 3841 5008 6981 6342 116 8723 6290 6455 9593 5491 5498 4174 827 5820 2065 2559 2118 4139 4088 7114
63 4609 996 3373 3187 7503 3206 1953 1460 8896 7569 5232 2629 8884 981 9528 3173 4907 7466 6245 6108 3555 7778 1219 7014 976 656 2071 314 733 5484 6260 1843 7936 111 9165 6653 3060 2782 7573 5620 7517 4059 6768 3019 5365 4272 3376 3698 3661 5578 8293 2484 3714 143 6892 3833 2212 43 4254 5774 7280 9010 4153
66 3503 8831 9625 2002 9444 8609 455 6083 422 3241 7725 1871 1528 1157 168 1549 5138 6297 8192 6214 156 8200 9098 9628 4319 3131 4372 5975 3702 6661 7720 9763 3862 2235 1001 2891 1975 8950 5739 8009 4496 3618 4181 6816 7474 759 7141 4293 1328 2087 1991 6136 6390 1243 4237 6780 5109 3347 9451 5438 3561 5427 2278 1215 6992 6420
65 6579 3027 6775 2359 3640 9271 7360 2067 771 5489 3506 6765 686 3526 8944 4224 1455 2148 7896 4031 7638 5703 7183 9463 6230 897 4198 102 5442 4700 1597 423 1579 2670 7319 8136 7452 8441 2653 6835 7553 9081 3873 2074 4032 6948 7559 8761 1782 5757 830 5859 5932 5023 9912 4267 63 4597 9298 995 5478 1507 7592 6635 2898
62 4513 4495 9780 8978 3474 6073 595 2260 5580 9076 8682 5130 7660 4695 7146 3548 5900 5784 7558 4956 3626 2228 5880 4118 6365 582 2866 5763 788 2731 3742 4965 40 6735 9131 3966 1592 5799 4885 4304 647 1703 2557 2744 4992 1981 8960 96 9721 2172 3163 6360 7007 2806 3893 9029 4716 1368 3488 4482 6053 6938
67 8100 8529 826 144 8444 6200 9867 9057 9505 1035 8624 1490 5596 8885 3033 4573 27 1294 3061 386 2206 9286 2279 3586 2306 3582 696 7000 6334 6174 9307 1013 6984 8046 3806 885 3514 9114 8716 4781 329 3895 3808 4218 2850 1962 3820 1435 267 1946 1859 2809 6988 8318 7618 6129 3998 6515 6599 3369 5434 6511 3644 6888 7005 5943 4866
64 3243 5731 9689 5693 5636 7825 9686 4661 3134 5104 230 9833 8530 3858 1371 7566 1912 3090 1287 5792 6128 964 6590 734 5915 8817 6738 3567 2261 8423 3490 3681 2197 1022 9943 2752 5839 9778 4401 6891 3891 2637 6308 6125 5346 2238 6473 4647 6828 7783 6601 6583 2027 8017 6683 2747 5938 9871 9243 402 4606 7992 5274 555
67 7766 6985 5451 280 644 6436 7930 2283 5941 1840 4462 5935 7115 9803 7793 1463 4460 8195 1433 6081 2246 249 5962 9084 2080 4005 3225 6572 3248 126 9730 8887 5201 4855 5548 1785 5896 6498 3002 5876 5576 4094 411 803 1032 6400 5780 9513 1469 1058 9766 4951 5315 8080 4108 5686 2798 7932 1391 5046 1407 5604 7916 7019 5076 7369 6499
66 5649 3050 4400 6517 7446 5322 8011 5380 2018 4924 9974 3581 3120 6444 8465 1043 2682 3028 3908 6120 2659 7045 6403 6520 6296 1123 4771 6250 4722 7550 5727 1110 8212 6233 6418 9526 1304 4823 2711 3356 4929 2406 7850 2914 8310 2377 4652 7996 9714 5626 6167 1941 7167 4311 2646 437 5801 7249 9336 548 2479 3769 1589 2725 3298 8678
63 320 5728 1006 6123 4187 2529 5272 112 8657 5168 2364 1807 2614 1320 7648 8150 2717 2729 9664 2539 3416 9259 7352 134 1821 8798 572 5947 3792 7946 5568 5158 418 3276 4103 8417 4182 1151 6615 8250 9397 5737 3876 223 7607 5501 9235 2376 7366 2358 716 3734 728 3186 9191 2966 9117 3223 8546 6044 9966 4770 8181
61 2533 8473 1930 2291 3345 7461 7013 5343 4191 8913 4284 3536 7278 3037 769 6787 3673 6567 7090 973 7138 9690 3352 5283 4818 2621 6634 1194 7051 5585 3283 4991 9053 3164 6326 7617 1359 4717 4978 5270 700 6715 3039 9878 2444 8870 8099 8494 2091 8580 2165 3516 8027 6464 9794 1038 4696 6917 8385 6218 6550
67 9299 8704 7479 5696 9880 4424 3530 4915 234 5391 6692 8768 1199 7998 9028 3760 470 1765 2434 2485 9360 3422 2121 4514 883 2417 5368 1026 1312 5654 2864 1924 3727 465 8271 697 6324 6378 4943 3460 8010 568 6529 6800 7120 9600 6003 7111 6294 6555 1263 1085 7918 7101 890 2282 2475 1034 910 4503 4827 384 9693 4279 953 2598 3302
66 1860 5032 1537 7748 5615 4375 8048 6074 4934 2510 7952 7743 6379 2229 6346 7332 5889 3996 4517 6320 9947 2545 1582 8993 1115 1413 6091 7841 7310 7049 3464 1737 7140 4824 4826 394 6310 7750 4077 9771 4631 9188 1917 2790 3354 6616 8598 8826 8935 8141 7396 3201 4259 3249 7405 2514 5750 5698 113 6534 4754 2658 3979 8155 6222 1142
65 9953 3108 3117 6184 8410 6678 7635 3335 8388 9701 6954 7028 8551 4646 1853 7259 1949 755 4834 1713 5653 9884 5588 3706 2115 7224 4248 3063 3778 9256 6338 3066 7451 8025 3346 4612 2944 5390 8329 4790 4242 9130 9726 2593 9830 2970 4692 4842 1475 414 561 1486 8172 2742 7731 2995 9485 2813 1508 3588 9616 2963 5665 8863 3580
64 370 821 9609 1667 6607 9865 6795 5096 6293 8720 4140 8599 2096 588 8882 8096 1189 9042 1124 501 894 3994 4229 5416 7401 8394 4711 5319 4122 7200 9837 9103 4892 6364 4209 9087 549 2258 7136 8843 3358 5795 6813 8414 6113 2144 8508 7530 5344 2167 6881 5945 7640 848 2133 1708 8061 3328 4447 3324 2380 3543 1326 2515
59 1384 3764 7507 7508 4138 6788 6082 9579 1625 8560 7934 8220 4548 6025 4427 5545 9804 8409 1352 5643 2101 8003 4342 3022 2959 980 1258 7763 1220 2503 4909 1775 3169 3951 1051 3191 4939 3583 9508 7811 3566 8989 1439 9398 3829 8877 4076 4782 702 4980 4950 2511 3309 6504 5129 5058 5767 7794 2398
67 4733 732 8916 8683 1405 6396 8338 2090 9926 2000 8429 2849 630 8853 7562 1907 1595 4344 8229 1495 7447 6629 7560 8119 5429 5603 2896 1266 3559 9300 9969 9032 4765 8808 2835 4416 9212 2698 334 8995 3542 635 9666 6770 6918 5294 7341 9770 9825 3759 3826 7610 614 487 477 3775 99 373 4385 8849 4962 7722 1573 888 7306 5624 7904
66 3102 1867 7669 1477 2532 5245 9983 1973 7735 1836 7078 1160 3722 316 7143 1168 5079 7046 2523 7912 6544 3978 151 3427 5628 9149 3765 4600 9581 4283 8098 9041 6040 5599 8204 2774 565 4586 5012 2307 2859 190 7391 9700 61 7282 9815 3492 6538 6553 6164 3290 1415 2029 6307 3253 9400 6935 7815 3071 4694 8426 2328 7555 138 5687
62 7481 8690 793 4804 5733 3041 5220 1195 3910 7532 8606 6191 924 9869 1676 9017 4264 9496 6872 1003 617 6687 2847 1392 2712 6724 8697 1798 5186 9645 8543 2213 2341 1806 4159 8775 9675 6256 2762 7649 8008 6819 8736 3645 9936 718 3563 9269 9772 8651 9862 8668 372 2289 5085 7189 6171 3955 3043 3246 1756 752
66 2922 521 7098 6727 7462 9749 2180 1458 8344 5376 8496 1316 4649 141 3948 2137 4512 6068 9037 6032 2679 1679 495 1688 9427 6820 3643 8836 1899 6639 3315 4688 6080 9099 4349 9673 4281 7893 3527 5471 5333 389 176 8555 8820 9214 235 9289 721 4797 9380 6272 2971 1182 6357 7616 6510 121 4619 5448 1044 6405 2460 5005 5433 6292
65 6896 7733 8866 7348 6806 8689 1884 7068 1554 403 4645 5589 2647 7784 7039 26 2396 3993 1957 2210 2648 7495 5526 7687 8671 5 4255 1581 454 9622 9849 1105 7250 1251 9787 8102 701 1918 8715 3259 1079 3974 2424 3442 2509 2202 5749 1753 9498 3521 5244 794 8859 6783 5017 5399 9996 5520 4404 3390 8277 927 2617 8921 9975
64 2636 3736 7859 7099 2447 1372 3323 6199 3017 9203 2933 2345 1861 257 4057 7215 2582 1406 8380 8773 8926 4537 2174 7579 5925 4867 5644 7760 7018 8541 7790 1148 6221 1093 6994 800 1829 2147 2324 2817 8899 9368 7942 6361 1363 5403 7066 5960 9138 2919 5361 3149 9856 7807 3333 8901 7244 5470 356 4803 879 1206 1646 7079
64 7035 8602 180 9452 8389 6141 2281 2931 6969 1259 5613 9338 6010 9194 7865 9204 6898 9832 4786 8483 8957 537 346 4839 9607 1020 5968 9192 7757 3796 9511 6479 1114 6530 2073 9450 8135 4078 3529 7112 366 1288 3795 937 5913 2110 6899 4841 8153 7318 7430 7827 9477 9093 8151 9164 5422 4244 6339 4056 8304 9257 3802 9113
68 38 5506 6784 2128 7264 5650 5065 9640 2095 4266 1095 1396 2865 3773 3949 7895 4002 6236 3725 3119 3511 2908 4793 7126 4487 3429 6582 5275 8805 5469 6993 1594 8146 4504 859 1172 5834 7944 5106 8129 3928 9263 7844 1419 7093 5481 1224 2889 5948 5495 19 1964 39 6267 6940 3961 7237 7201 2322 8431 1623 5652 884 5039 5143 8114 9409 2932
69 8053 3715 1895 7821 4968 534 7644 9646 7747 9716 5515 5923 2576 5868 5978 7903 7513 7779 3937 1950 2755 9725 4360 5611 8620 284 9301 8691 1768 4310 4189 3851 9034 3014 6175 9791 1569 7162 8079 9860 5759 4045 3943 2192 8769 4626 2939 566 5453 4074 188 44 4355 1668 7206 810 3209 9769 3538 5607 9775 5817 6848 5098 6234 2149 7174 3009 2349
65 1158 3624 4456 6716 1864 9855 7576 4665 3853 5475 5882 248 1548 2251 5371 2750 6323 7870 6789 7194 5854 695 8542 8273 2824 2542 8527 4651 2733 3904 3426 1156 5233 9824 1502 7388 1210 9155 5807 5086 95 6041 1627 7486 1819 9985 7088 7455 413 2466 7223 6548 4748 9611 7680 8565 1818 2272 4164 4930 5014 5102 5081 3825 7789
69 9107 7471 1030 9148 4805 6870 7312 8358 9413 7454 1642 8283 1028 8419 1099 5808 4783 8914 6385 4494 3055 5094 8346 6685 3541 4840 483 9992 5815 5929 9819 2739 5026 9468 5684 6494 9829 2581 6950 6244 2741 278 1125 3903 5103 583 108 12 739 1450 2154 6348 86 6633 9248 6383 1664 3370 5717 972 6328 9790 705 4043 8905 4177 7836 201 5424
60 147 3729 7928 6695 49 7303 3168 9393 7004 1101 9437 5330 5833 3221 7254 2779 5894 4247 8261 8491 6573 3319 9291 6561 5426 7011 8860 8862 1060 1966 8370 9004 1109 5985 3484 3331 4727 4265 1575 8470 7974 8288 720 3544 9904 8403 9605 9767 7003 5132 2301 5259 8459 6953 9112 9069 3507 8194 7212 8188
64 9274 2926 2892 3719 7888 787 6009 8622 9599 1077 9420 438 3092 2232 9789 1694 545 5692 5467 2468 9594 3434 6035 8408 41 6277 7425 3099 4270 9980 6143 8243 7392 9189 1271 2781 2829 9339 5226 6402 7814 524 4816 7105 680 9563 2520 8299 2249 4881 6404 740 2057 4395 2665 4352 3960 5977 5980 515 7855 3990 7871 8740
67 9421 5071 8214 2016 9964 5262 3200 8618 527 2948 3739 6540 335 5203 1256 7465 536 1478 8466 3075 8642 7157 3852 8026 8575 1303 3509 4601 7963 6387 7719 7911 9175 2589 2945 538 1593 8004 9369 5758 98 4668 2924 307 8295 9952 443 9457 377 8113 1331 7574 1108 7171 5939 4822 1970 36 4303 7412 3413 3008 1052 5848 8169 2528 3272
67 9190 8222 4359 5973 5164 5873 2099 2651 247 1083 2039 3133 6960 9312 2035 4887 1952 2329 478 2537 5190 1671 5284 9615 4130 6157 8590 2649 8864 6193 7518 4918 970 6452 3252 3860 7762 3676 2150 8600 8588 8481 5030 8503 8013 6512 5888 5738 401 4629 7596 678 9168 9031 3306 841 5641 3881 9043 4044 253 2704 5002 8520 607 7064 3338
63 7795 2499 9059 6151 2578 7723 3815 6394 7698 5050 8125 5401 9460 5229 7418 6258 5337 5369 2102 2877 3748 5946 9541 7346 8906 3677 4911 137 663 9218 9658 1591 2058 4571 945 1342 3831 2446 387 3832 2852 3614 3639 8330 7655 9836 933 4579 9939 2759 8809 8323 2818 1048 2710 6846 6802 4878 9443 6098 7293 770 9687
63 5821 592 5954 3258 2535 3551 9309 8351 7846 1227 2840 5669 8259 2156 2375 5601 1010 9938 5550 962 8804 3325 2153 5869 1565 5986 2738 4847 5252 9253 1118 7861 2577 8830 4641 1823 1385 4231 1684 2019 7600 2761 8287 4468 1611 8458 1937 9877 1815 7948 851 7387 7509 5057 4613 2056 2077 2338 9077 6398 6771 6506 8406
65 9934 182 7637 9547 8355 7797 4673 8665 2886 5789 60 2386 6677 5867 3227 3091 8865 4317 4757 5432 570 2571 3534 7817 7153 6337 9089 8383 4775 4760 1424 4418 7154 4453 5769 1767 1426 1816 1488 3872 7017 934 6558 2123 8696 908 299 1290 3774 6301 5173 9354 4565 8889 8698 8028 873 9241 5605 636 8489 1906 2323 4141 6106
66 6995 1770 727 8523 3440 1517 6363 1300 1009 9318 3300 8845 1281 601 2501 3595 9170 6431 2367 3386 4194 4529 1268 8626 4832 9806 2486 9868 7937 9760 167 7801 9957 4637 7042 7500 8526 8658 9582 4509 9401 967 8786 2981 7957 2401 1689 7245 2437 6654 5010 1710 5055 6574 9208 5384 9627 4477 2443 5191 486 9414 367 9434 309 2320
67 7692 1430 8518 9847 155 3363 3048 78 5559 9624 760 6523 1066 3127 6847 6982 3374 3812 4762 8143 4584 6158 7526 4703 7235 6228 7839 2088 9358 8938 3498 9799 7444 8418 20 3380 3672 2753 8159 2640 596 6094 4338 853 4653 2242 6521 9305 5205 4893 2856 3648 6571 3100 9755 1665 7047 1423 2308 5366 211 9352 9126 1353 9343 8654 9458
65 8655 1231 8669 4060 1360 1117 1265 5814 2026 567 5295 6867 5695 8674 385 5025 2296 7728 3263 9319 6377 482 9932 7390 6209 7283 5512 8500 9637 4988 7494 7715 8900 8656 8891 2394 869 8666 7276 9429 8107 7308 5293 520 4475 664 5838 3798 4502 9207 5532 8083 1969 2572 7134 3052 8610 575 8480 3268 4737 2256 1578 1196 3294
64 1448 8066 5694 3753 2227 8512 1705 2709 1681 1526 494 4219 4162 5957 360 4794 7554 2321 4064 9349 8199 4687 8042 645 3129 7440 2998 2369 5584 939 2555 7243 3874 1042 9281 2290 406 458 6972 7995 6875 148 5979 6810 1340 1901 9752 269 6877 3107 5637 8055 4309 8681 8019 1738 1336 6319 6700 3432 9559 3016 9656 6150
61 4551 2788 8363 5837 1293 6021 9003 3869 8504 4725 2991 5891 9122 9685 7009 6963 1350 7429 8952 2157 6381 736 4575 1319 2863 6411 7917 6101 4784 1736 2916 2906 7240 1282 3565 7453 2968 8425 424 2092 4853 963 317 2013 292 7800 9092 4040 2597 166 9888 3179 9861 4058 3690 2882 7228 5392 2554 3501 4193
65 7533 2880 4921 6704 7034 765 5705 539 4015 9659 2193 7393 8050 3585 2438 6513 5970 3088 1691 9578 7469 3118 3303 5773 504 1610 7556 3726 5572 3546 5782 8659 8734 3724 9706 7315 816 6690 3554 48 5972 4874 6904 6946 5198 8000 977 820 313 1315 6925 5273 6274 9282 7038 8823 300 272 3664 6137 8395 6370 3913 2388 1538
69 3701 8812 5616 4426 4906 29 2801 9365 1635 523 4034 4379 9179 7117 4128 4872 5765 2805 3282 2830 8878 4114 5367 633 1740 3020 1909 7041 1903 4656 5997 4745 268 7191 2897 5558 2586 1702 2734 6883 2243 8154 3463 1317 2718 7519 6929 5618 7678 5070 1222 5029 1887 3153 8498 2771 376 4552 3823 2134 21 2691 7537 6413 8897 7353 8231 3941 6684
65 5230 7449 9697 3479 2822 975 2159 563 3901 1674 6830 4940 4123 6549 128 9201 7204 5812 7324 8251 4799 3695 6934 6288 9788 6321 5688 7267 9661 6424 4351 6446 8785 5073 3584 5306 6844 5832 1500 7063 7875 6186 2405 661 3382 9448 5456 3073 7020 4429 4451 9668 3848 4011 7052 7681 7809 559 2784 3570 7548 2873 2346 35 1803
63 3311 3404 923 4009 2763 9108 882 1245 3857 5149 8582 5282 2664 7941 591 6749 9543 2838 6757 67 5745 7745 1794 3082 9362 5375 6808 9033 6671 16 9561 4585 2303 2061 9601 5287 7070 2407 2800 3031 2298 5231 9564 9546 1655 4949 2680 2965 5831 921 7591 6026 9332 5255 9478 5537 1825 5699 4083 2705 8592 2319 1984
64 6826 9132 5126 6077 6333 7716 2254 1854 9617 4391 484 6708 3494 9374 302 3930 1169 9324 7982 4129 7205 3251 2050 3553 7268 4697 5246 5209 7227 3428 797 7675 4301 8687 3995 4858 8032 6699 1348 5856 303 165 2990 4577 5084 5288 7323 3138 2273 6242 8920 118 4097 8455 3024 5000 4485 8256 8300 2277 9929 6878 9151 3446
66 6664 2826 4815 5826 3261 8552 5171 4327 9743 3830 8286 3710 7351 8105 4636 9461 5024 7909 2878 2870 2127 5594 9913 7650 8880 6142 9852 2940 1847 4522 4041 5396 5374 6944 8584 7251 1262 1783 5461 8561 327 8789 2584 1914 5905 4413 5602 1274 6076 1045 6829 277 932 2893 5874 3154 2003 624 9653 7077 2334 3560 5511 1374 1126 7092
67 692 1191 7445 8237 9704 3436 8852 4296 6936 2538 4006 419 4093 4863 8352 7653 668 85 1063 9921 1920 9226 8915 3816 197 488 578 1441 4731 5223 913 4859 4996 8792 1344 7363 2857 8343 8238 3654 4891 3880 1278 6731 1866 543 3631 9364 1572 2300 4895 8070 6318 843 5146 7803 9249 4801 2045 9621 93 3034 6598 5474 8557 9261 1648
65 1345 179 1147 7894 9456 4155 6166 5324 2463 8255 9835 5042 776 3360 6060 1649 259 9121 124 3144 2591 1631 2416 5078 634 5440 2215 1011 5113 2483 8528 6407 4271 5656 2395 3414 5136 6280 9828 5256 4332 7727 1932 746 8387 4307 9246 1383 3278 7758 4346 4898 7753 6322 238 2715 8947 6915 7179 1630 6885 3421 8086 9490 2719
64 4412 984 1634 459 8569 2825 9328 6612 1568 2610 8874 4411 2234 625 7087 5326 761 436 4200 907 5906 4371 3611 4038 7067 8322 7015 2402 9466 2858 7297 4381 5904 3065 162 1086 4220 6111 1207 8112 8787 5360 9613 344 5538 5490 3165 5802 8157 2950 6580 5181 9998 6237 6709 2727 1560 2660 3617 5267 6624 6989 1321 9937
63 7499 2428 7842 7270 8021 6764 6756 9667 4176 9119 1198 4105 9230 8109 2339 5950 1544 6551 4467 837 7954 7137 7411 3632 7670 9948 5300 7986 914 6075 1945 7419 8844 3884 6187 5317 3497 7381 10 8433 893 9055 6192 7924 5165 4785 7856 3685 7866 8371 4236 4708 6592 1152 2161 6500 6465 1741 9602 7886 3051 3635 6853
65 5063 6621 8341 654 5314 1792 3281 7984 6600 5268 1457 2638 2874 3810 6458 8525 9987 3868 9657 8045 4052 174 7804 3070 7350 6071 9391 731 8612 7338 3385 7181 4215 7209 8867 3412 1404 6766 3752 9011 7851 149 8958 2912 9907 9184 7291 5247 1868 9773 6900 361 4800 8553 6220 4714 7708 4089 5547 5697 9373 6531 8886 52 3915
61 7505 4450 3692 5530 5003 6408 4433 3210 7389 5523 7891 1848 1771 576 7108 196 428 408 2436 1993 8660 9719 9502 7628 2925 5444 1632 2241 6198 6102 2354 3124 4212 8533 8339 7386 5413 392 707 8545 4905 6084 861 2760 9389 158 7437 9711 7624 1870 3254 9781 154 8992 2979 8321 6691 8138 8949 3572 8980
66 5199 1284 8285 2967 9472 330 7551 2984 8941 4948 435 2164 7337 3699 2505 2522 6356 2458 6163 8803 942 6435 3922 9942 1590 9620 1073 9462 4966 4454 7824 5531 1236 4014 906 758 4443 4288 5901 7399 2812 8635 7239 9608 8350 2105 2462 7116 3489 9826 9844 1754 7222 7563 4743 7236 47 3393 479 4033 2225 4394 593 7666 9859 33
61 202 3887 6605 7345 9173 5353 9818 8068 3437 5192 5141 3110 6807 2656 2114 9970 8331 8881 2435 7782 3931 5993 1583 6823 9548 926 852 8103 2983 6264 3556 1744 5974 210 8279 5539 2034 7780 1896 4902 1217 6392 3094 2326 8324 1173 7305 393 8796 584 4199 9124 3409 2236 9110 4113 349 7397 6049 8834 9264
65 1247 8353 508 6024 7973 4274 1214 2574 6309 5447 1724 2314 2622 9449 6483 7630 1626 8060 5092 6626 3758 8646 960 7229 1146 9322 103 9453 762 6190 4742 8964 3372 4506 6002 6344 4275 2544 8824 7 5378 714 8077 7450 3674 2311 9629 6160 3935 3500 6371 8218 1159 4329 7668 5114 380 9157 2433 7584 6219 2068 2008 3925 2668
62 5895 2611 6300 4368 1202 8536 5858 1211 2001 9746 2876 5785 9356 1608 652 7185 1599 600 6581 6911 5571 3805 183 5595 5359 7967 7943 229 5352 2478 3878 2352 1628 5254 7674 3402 8733 8377 5922 3299 399 6920 637 3226 3167 1412 723 5018 4945 8772 3240 9049 7689 4269 1019 4888 3512 2032 9030 660 8463 9612
62 2563 6845 1776 9222 710 2240 2550 8386 5472 9366 1082 3728 6594 7095 8249 1759 8933 5952 6652 4868 3207 6822 1257 9071 4505 6801 7135 667 6751 2368 9488 353 958 3194 1054 1935 2675 4250 9727 140 6897 8714 4406 9521 1850 8756 5193 1972 9002 5927 9293 2024 4021 6368 8469 5455 9378 5013 8647 7873 9808 9692
59 3856 5468 7749 5534 7512 3767 631 7133 8521 9465 1309 3954 1249 589 2494 3339 1839 4119 3804 4524 8506 2280 6755 5034 3934 439 2155 4900 7395 6117 6295 6543 6438 8372 7502 8187 5358 9571 3222 6038 1833 4602 4890 1059 4969 846 7947 3098 3547 4720 6790 3392 1023 8435 725 7884 5563 4223 4810
64 7615 7667 814 5953 50 7375 1137 1609 3162 2361 2129 7208 4532 4854 4326 8574 4798 1434 4185 3557 2895 4230 8325 6931 4806 3062 2211 4225 8636 2449 2237 398 491 1574 1096 5334 8693 1916 7813 6817 7960 7197 5195 9482 4387 3342 1926 3837 1934 2366 3679 3666 4523 4594 2833 8134 8253 3466 6694 1355 6759 8076 4732 7594
