3 6520 262 9099
3 9702 2007 8377
5 4144 7904 6363 8070 6467
7 2343 5317 4898 8452 8606 5524 3819
9 7329 5864 2693 5739 2491 9764 7182 9931 4841
5 1480 6072 2298 9097 4891
6 7003 9509 4996 447 7460 7539
9 7882 3905 6462 3187 3864 4998 3134 5697 6258
9 7314 881 39 558 2379 4735 1823 4987 2225
9 2735 7028 8038 6830 6362 4303 9451 7404 6458
6 5437 8160 8991 3198 1107 6834
1 1817
7 6548 8732 605 8893 2806 7133 2840
9 9503 9011 2605 9624 6382 1374 7228 4127 6330
6 2881 6740 2288 7476 2134 9522
8 6581 7280 5321 1594 4220 8087 4116 2746
8 1773 8239 3508 264 1680 5604 2544 2618
6 7347 2204 7966 5763 3705 1153
8 5156 1721 928 9489 3265 3749 181 9759
3 7373 8464 2591
5 5426 4924 4301 3887 3883
9 8721 9444 3962 8885 8625 9676 3742 6288 7986
3 4087 9100 3491
8 9897 134 288 5997 9986 8808 8543 2563
10 5377 2787 4532 2984 613 2692 427 5159 3975 8053
10 6724 9751 8667 698 723 4148 8046 5044 9220 8718
9 4450 1071 5625 129 1691 8124 5895 6 8666
8 854 3877 6169 631 1213 6943 3965 1009
6 4184 1725 5679 4135 3256 1545
12 7318 3311 4029 3625 8565 2918 205 3703 5647 4695 4799 8887
12 2147 6526 3215 1188 2122 103 3630 2499 5950 6514 7937 8519
10 7196 5593 8749 619 1666 5151 5833 2289 3478 3349
11 8786 5452 7387 2959 9663 2262 2993 6978 6750 3402 4124
8 8868 5260 3828 4647 7892 6108 1586 464
6 3163 2863 8048 9648 1341 3619
8 2261 7205 171 5072 6935 8762 8156 3737
10 2382 9447 1816 3548 8683 107 6664 8654 1293 9304
11 5424 2082 4942 3061 7970 9689 3310 5758 472 2409 4568
13 2112 380 5619 2272 5481 1572 1119 3206 5580 7565 794 343 3456
12 8167 6181 6102 2662 2242 5505 8934 4723 7289 1887 9317 6111
5 8736 7253 8244 2344 8402
14 6689 2512 9944 2198 3117 3173 1286 6145 6792 1367 6470 6439 632 3781
6 3090 7293 8745 1486 3330 9520
8 6012 8767 2978 9788 995 7991 3656 3259
11 6480 2119 946 7322 654 7431 3868 1295 7112 9736 9380
11 4884 2741 4163 4460 7798 2522 3982 9967 7850 251 4320
10 448 3940 5674 1554 7181 204 4189 7151 7733 3711
13 19 8353 7501 4340 1155 9455 8655 7833 2193 5434 1614 8862 3586
9 1908 938 3139 3091 7487 3252 1003 5543 7509
11 4575 9586 1057 1989 7345 7105 3359 6621 6365 2597 8980
7 3487 8016 4306 5048 5581 5436 8119
10 7787 6729 6495 8525 4572 9540 7496 1318 8301 1881
9 7394 5626 5664 1270 8066 7427 6070 6241 9916
8 9979 1433 2646 3337 9814 4054 7146 5370
11 6491 4872 1934 1041 5694 7653 2721 54 8251 962 1948
13 8458 8784 9144 8785 4944 4249 1459 3980 2266 9596 8078 9281 3588
9 7438 8272 7741 2517 1216 7563 6242 5606 3274
7 7285 1975 964 6933 0 2659 8069
12 825 6902 9880 3801 5490 2050 5121 8313 4820 4158 7311 6364
7 7711 4810 7443 7218 4823 8019 1958
8 164 6131 2018 14 6627 2864 2897 729
6 3213 7536 3515 2594 2698 8414
9 9158 9780 6353 539 446 6207 3120 8684 4803
11 9657 7267 6281 6055 8248 3733 900 3652 679 998 418
12 1215 3721 355 5908 9919 3509 1039 6335 5311 6093 1001 1646
10 2316 4673 3795 3694 396 4074 2269 4753 3741 2509
13 8395 4624 9742 5794 5136 9437 4294 3275 7269 1581 6533 8468 7586
8 8150 6530 5898 4298 8411 7943 2691 939
12 461 7817 6692 738 3096 3407 410 3792 3838 4013 9536 8171
11 81 2400 8672 9028 7328 4412 1120 6715 6032 1701 4725
9 1209 4232 6863 6564 9600 3304 7017 1510 8098
11 4802 2768 6227 6014 1334 6323 3712 5449 8185 20 8972
13 3555 7020 2056 397 6907 634 8432 9017 1542 3095 316 3284 5571
14 4869 5658 559 1624 7728 6428 2798 4134 1191 5058 6650 8942 8941 6260
14 5393 8143 4789 4845 4612 345 7821 5894 443 8396 5280 1801 8582 7335
10 2352 9844 4689 1322 7806 2381 8619 1234 6322 2983
5 5480 1847 2609 7820 6019
9 2142 7945 7332 1380 9336 5874 9396 2271 5857
11 7867 1415 4046 7094 694 9588 4864 4363 5661 778 4292
9 8699 1146 4380 7374 1699 3279 3033 4783 2253
7 9355 8061 798 2877 455 8163 8700
9 8343 5984 1932 7056 5932 913 2847 1923 2755
11 1776 9559 1831 1686 3191 4614 4385 4928 188 6559 4662
4 2648 6583 8106 1705
12 489 3066 4247 4985 9060 7746 7997 5348 2138 6210 8556 955
9 34 8366 2820 9953 2879 3571 805 8054 5854
2 4981 5968
9 9090 1323 6855 2549 289 5460 8622 9638 6273
8 9612 7100 5802 7290 2946 8308 5900 4243
12 5837 6245 4625 8284 2155 7523 8205 6998 1087 6257 3780 797
9 8079 4880 6159 2346 9486 9387 9391 6955 9850
6 3623 2374 6398 4632 257 9530
11 1724 9118 2722 8006 470 4484 4610 8279 7011 5179 1652
6 2115 6463 9782 4311 7814 7252
8 3557 8449 6133 2931 8676 359 8778 835
12 2292 3775 4291 3494 3150 2545 745 4751 5845 4273 9990 626
9 8624 3186 9358 3960 5186 2080 1060 2839 5501
11 8072 252 6696 7584 8417 1172 8145 6445 6481 5225 5407
6 4112 2412 3041 1522 4553 2773
13 6466 4536 3779 2958 4834 7454 968 8812 1917 5281 3836 2185 4271
10 2714 7248 3054 2910 967 1302 7771 2629 6958 3755
9 7716 4253 4983 5362 431 6789 1207 1418 142
7 4396 7528 5671 8836 8282 6994 7189
10 5721 584 3114 4026 2832 5339 8702 6914 2586 4018
7 9153 6371 911 6717 4277 9532 2658
5 843 7972 9834 9573 8897
6 2214 8568 8380 8327 7527 7093
11 7143 4628 9240 8842 1525 5142 755 3971 9146 6271 4242
9 4776 9784 5031 2111 4757 1899 5896 2540 3289
13 6069 6034 1644 6601 2406 5394 8526 6555 8256 3959 5325 3408 1758
10 9581 6921 3689 5164 5145 5515 4337 4911 1306 6434
6 4658 8014 7638 7620 78 4868
10 9238 3610 3262 577 7168 8206 650 6250 2457 6060
13 1625 9965 7448 5917 1428 9055 9308 1517 9887 2502 9024 1082 4348
11 9735 3435 2802 7516 6602 155 9310 9338 9301 5592 6170
11 7957 8587 6639 245 9666 4664 8823 8692 8872 8553 6185
6 7468 1698 9775 5494 4275 763
9 9252 9318 7718 413 7664 8487 685 8375 2868
10 2313 2304 8573 1827 888 5482 6005 3180 3620 5273
11 5001 9661 5314 6309 3464 7983 5202 758 3322 8169 7111
9 2468 5274 1092 9365 5897 3644 8232 5821 3871
15 3910 3829 8511 6743 5462 6560 3996 8908 9280 7977 9669 1290 8690 4157 2210
9 4058 2999 9030 8643 6355 7052 5533 6595 8740
9 2462 7447 2367 9032 3728 1802 1983 722 3378
5 378 8741 4316 8200 7621
11 9626 2141 744 4092 5643 3350 4994 5269 3677 7001 7713
12 4593 6678 7176 1905 7923 4095 9057 6334 5047 6819 8874 3110
11 8548 4659 5054 2332 5520 2027 3472 440 329 3313 7611
5 8227 8080 4091 790 8178
3 2366 9474 3560
9 376 6172 2000 4212 793 7749 4262 7593 5578
8 5991 7279 5949 3863 9635 1226 8939 901
11 921 1476 5104 4730 8914 1915 7669 5964 9004 5125 638
9 9166 3966 9265 7900 3731 1342 1237 2092 1114
10 1660 2330 9006 538 3118 5037 8275 7968 6191 160
15 8739 9068 5892 1252 9575 5708 9009 3897 7868 9726 8454 4149 4 3723 3238
15 5018 8489 4665 9333 8997 8234 6124 9719 1617 4399 9507 170 8480 2363 3380
11 519 8664 2439 9435 7291 7589 1935 1390 8123 8453 5960
5 986 3989 4114 8253 5108
7 3647 5084 4766 1728 9 8430 2627
11 6825 3746 5632 5353 6811 2524 4600 623 360 5265 2530
6 9526 8257 6036 3216 9193 1140
11 4848 874 5303 9889 8645 2682 6249 960 5750 1035 3111
13 6340 2577 2021 4323 4322 5078 1520 8364 1938 9711 5819 4374 4393
11 6220 5495 2777 6759 6472 6440 2925 1641 4904 5682 9034
4 9459 4049 1285 8802
9 3566 1695 7844 6195 9956 9552 2200 8278 8022
13 9313 775 473 4486 347 8466 1127 6872 944 5760 1722 9443 4729
15 853 4244 9826 9583 6578 201 3581 2853 2550 3042 1892 2704 7054 9650 8738
11 1311 3847 1850 5176 8365 4596 5812 5455 4133 2786 6667
14 210 3592 7907 8247 7125 1091 1242 5544 7950 4445 1488 398 4186 9690
15 9974 1251 3493 1282 2652 2197 1736 3015 2836 5190 5817 7953 391 2785 7349
12 2519 4387 9508 4470 9989 9414 8714 2534 2965 5361 9970 2521
16 9679 6360 9406 2140 9407 4638 4032 3379 3881 3670 2953 1484 5209 3945 8162 5296
11 8203 9433 2837 3399 3878 905 1184 3507 1379 7375 1972
12 7576 1197 6519 9410 1933 1375 2932 4193 2815 3848 9854 9476
9 3362 6094 7012 3074 6892 6482 9792 2411 5538
5 3147 4939 1328 2947 6960
14 2495 1968 3205 1271 8779 1224 9959 5327 5423 9568 4977 9717 321 5020
8 9869 5783 873 4240 73 5978 5334 7559
14 9477 8681 6279 2011 4749 2670 1187 4961 6934 5657 2133 548 8865 8636
9 549 3291 2237 4573 2643 7163 3853 7303 7472
9 6677 5610 7419 1811 1878 9467 1579 6613 3617
16 739 6004 4854 2893 8438 7852 1957 7144 2588 9521 3003 8089 8 4069 1150 8850
8 3469 5102 4978 9378 3704 87 9840 5254
11 4525 4485 9382 5093 2433 8912 6369 2096 3417 7264 1713
13 5934 7088 9303 7340 8015 1401 6624 2822 2421 5855 795 731 2224
12 4937 2505 1448 2364 3935 5905 504 2878 2767 6441 5244 7
14 5017 1004 7334 4330 3763 9958 917 2022 1754 6701 9197 5623 4678 7204
12 5967 8536 9697 6588 7720 6011 5251 3128 926 4760 3184 1300
11 3146 3646 9219 6187 5217 7160 5231 8499 9606 1303 7458
14 6485 8243 7316 1424 7944 3674 8946 1126 8707 4769 8717 749 5953 8269
15 315 9402 5169 5356 1179 624 4597 1298 4708 5776 9773 5077 7649 9176 750
8 553 2649 8881 3312 5130 8138 994 8528
12 2275 9364 7221 3753 7520 9400 5153 9426 3797 7069 1020 7441
13 2904 2178 9678 285 7195 8971 8455 1506 8891 8332 1851 1619 9088
13 7320 7810 9705 300 6476 2229 2596 1789 1575 3388 3185 1602 9639
10 4679 4520 7644 597 1419 7008 4203 4522 7371 669
12 5402 8799 3278 28 8905 6949 2795 40 4239 8463 8120 828
15 9851 8188 6313 9276 4685 1982 6801 9206 390 13 652 5788 2294 8321 8775
10 8932 8029 6272 7309 6927 683 9939 4265 3519 3861
10 88 7557 1597 4768 7027 1607 2911 7519 9354 7192
14 6663 4028 5835 6808 5221 517 6264 9053 36 869 6460 1157 6867 5549
11 6922 9630 7562 3521 7616 4082 7639 4052 7368 207 6073
7 6122 8960 6149 9653 9905 2255 1190
11 5014 1595 8126 8316 9542 6303 1185 9154 9277 4281 7214
12 5212 1912 5901 5039 5105 9479 7121 6259 9184 1456 7825 8648
13 7109 9441 8545 9616 7578 6691 7774 8180 2310 8371 7748 9765 2697
12 6228 9187 8410 7494 7361 9139 2311 7815 4181 6635 5471 2427
7 5027 7207 9031 6312 8010 7408 7522
16 2465 150 6413 7457 4497 4274 6542 6763 5203 5488 3890 296 1287 8424 8210 4951
15 3257 2690 5045 2160 8576 8258 8299 5 9069 1398 9484 2145 3126 9499 6405
9 7455 2453 594 7461 3889 7859 690 8552 432
12 585 7864 8995 9949 6969 670 8165 5165 9862 8685 4813 240
11 5662 1369 1073 7622 7623 6501 3369 2610 5476 3631 9811
12 3816 4654 7006 6552 3489 1672 6660 7050 4516 7992 2926 702
10 4467 4388 8863 441 5961 2886 8647 1573 616 8217
13 3411 1587 7548 8603 1946 1853 3081 99 4324 6088 5551 7343 6964
15 9654 1955 6645 5635 1345 1591 5109 1712 8114 9404 7268 6358 9211 302 4296
15 3418 5238 7793 3645 1753 1622 1548 2800 6084 879 7035 4531 5230 5873 2276
8 394 1465 8892 7065 1468 676 641 4622
13 8827 5779 9950 3222 154 5401 6010 5935 421 9196 8623 4286 7049
14 7186 7379 4196 1748 6708 754 3145 2579 6826 3922 756 6212 5174 7681
10 3531 7595 4473 7288 3908 4386 747 6291 9614 4177
8 8675 4115 7342 9221 7633 4378 1446 923
5 6879 9966 6760 7055 7432
11 1884 1101 8761 6683 8793 4238 143 2064 8538 1304 1898
6 9349 9597 2763 8733 9417 9359
13 6965 7064 7701 1392 701 9233 2676 2987 5162 2583 6881 6795 6721
10 3368 3976 2180 3879 459 4371 1255 7507 6810 1000
17 3990 3513 3732 4221 279 6042 6791 8634 3803 7416 3520 1084 6351 6151 5046 4732 3857
16 2305 7922 751 5279 4784 4038 9785 7497 6531 593 2612 5912 2410 2764 3884 5944
11 6393 9077 272 4454 7932 647 8777 3745 5065 4476 770
7 8128 9249 7421 5098 6348 9915 5438
5 7227 1636 4611 4844 7173
13 7048 9330 239 3841 8161 2097 5612 5283 301 1829 3237 1658 270
13 6237 7665 286 2398 1469 3006 9565 3063 7888 2321 7881 3825 8012
13 4713 1762 7078 663 5877 4847 5947 706 6341 8222 8397 9203 526
11 1752 8173 806 1502 7590 3668 5416 5773 1180 1088 3346
14 9720 6426 9963 958 5080 4222 787 7481 1825 7954 1093 4156 3080 2211
14 5491 6924 720 1002 4464 6289 1578 8358 2472 4510 3522 7828 3804 3069
13 2355 9037 8998 6574 6977 9531 3642 2188 2494 3492 6080 954 58
10 4309 4404 7080 3305 2600 7743 5979 4047 9796 12
13 5070 8486 1631 4443 4218 7969 5570 9008 9076 4427 2961 9465 9326
14 658 2520 2539 7648 1655 9667 9800 8661 3223 9615 3978 383 3903 3637
11 1874 408 3599 7304 4431 1795 5302 7518 3929 3984 2130
19 2941 7975 5090 2360 2415 7120 2137 9263 2636 1011 2403 2029 9551 7257 2823 7310 4333 1919 9329
15 5970 6654 895 5888 1046 2393 3550 5068 2334 6427 101 6509 6993 9781 8374
14 5902 4583 9524 3058 5711 498 2023 4468 3634 4284 16 9215 3523 7601
15 8555 1634 6261 4605 2213 600 7033 4707 5146 6936 4700 4310 6505 7758 6339
12 8189 9485 5907 6880 7081 7405 6370 7625 1763 8722 9311 7766
14 5324 8055 5064 6197 4925 62 5784 4458 9493 7281 3543 9374 662 1577
14 4839 9561 5033 582 1960 9725 1329 5119 6852 4668 2671 1544 430 8147
13 7553 2402 9758 1953 6429 2010 7851 229 1623 7946 3787 8569 4641
10 6742 6634 1436 9539 5804 3454 139 5595 9413 6610
11 6913 5213 7086 2570 4493 2866 7744 1141 8612 6492 6917
14 4618 5727 6946 7502 3338 8478 9398 4287 3698 4968 4424 5616 2964 3000
9 719 4209 6374 6883 1647 9428 8886 8467 1022
4 1067 8001 2818 7795
4 8306 8884 9172 195
8 6529 6048 1319 9713 9609 1277 8633 8674
12 4246 209 1175 5101 1907 7802 6256 3944 4743 7577 6665 8349
9 8521 7513 4282 2341 4582 8689 6675 3927 2709
12 9817 5364 6436 3101 1673 6388 2069 6306 5575 8215 1645 2628
16 7401 2957 2831 2653 9242 5323 2315 9431 2303 6524 6489 8503 9831 6693 1136 7705
13 606 6656 2338 5847 3293 6608 4210 167 79 8923 7123 3613 1083
8 4794 442 8506 4224 7872 8051 5106 7760
16 3168 1384 7585 8346 657 6247 9681 6970 3650 7157 5617 4795 8888 7951 3125 8267
8 5716 2418 8095 5003 4332 1139 6919 1740
14 423 4829 2766 9566 7636 3136 1950 2616 5781 5669 1961 2408 7789 1336
13 4066 629 249 6963 1772 1151 4971 9875 776 3229 9525 8195 5547
14 4200 4792 2930 2241 8705 7384 7095 8734 1927 1173 3113 1359 7350 5029
5 6031 7364 507 320 9868
15 9685 7637 4170 3512 1160 5329 3062 8492 8473 6611 5450 6096 2454 2936 9339
11 3651 3083 3925 3201 2086 2678 1241 1615 1327 6959 9599
15 1993 2270 1589 4398 9424 6270 4681 5512 1249 1760 5531 9601 3084 9766 2845
13 5971 2220 890 5470 686 2553 7788 362 5056 9714 983 737 9673
15 1883 711 7425 8951 5240 6859 1687 4076 5354 4463 5395 1052 4451 8304 2358
15 4414 1430 1142 2057 6301 6648 2595 5319 3431 4391 6015 9214 1718 8044 4446
14 697 4250 4278 6737 2506 7312 6226 7352 7059 7964 6644 936 1653 1547
12 1509 4085 2068 3439 6671 3934 9434 3283 6487 2113 8221 3626
2 2660 5665
6 8300 9363 9423 6525 7159 7376
12 8835 8882 7865 880 2582 6086 4574 7540 4811 6539 9454 9334
11 6135 9015 4852 2091 4599 8910 5388 2280 2492 4474 748
12 3669 1639 6165 3590 8461 8356 8834 4791 3563 7751 1147 2203
17 1406 1256 8902 4407 1501 8544 6376 7979 891 7074 2094 9922 4649 5974 6419 86 8638
15 5517 6196 3026 4807 65 6915 8125 8170 7089 6954 9439 3533 1966 8319 635
12 9675 6884 7255 8586 9408 3750 4043 242 3682 1080 8924 5067
15 187 945 7210 2748 2442 1338 5367 1371 574 9178 1174 2617 3633 5536 4129
15 1066 1438 4255 7392 4584 2644 6225 6204 1708 3872 2103 5485 6016 8443 2312
5 6053 4613 9288 3782 7025
4 8686 5951 3476 2430
12 8073 2470 9012 2035 5849 7302 4878 5608 7300 2564 8320 5891
6 156 523 9208 824 2732 8596
13 2576 3424 9627 7949 8809 7752 5215 7495 7337 9162 2772 5248 2604
13 7889 4206 9607 3968 2351 7333 2001 1582 5884 4542 7348 8898 7615
5 2718 6148 298 4865 9227
4 8917 9994 868 9723
7 4744 138 9183 8540 3920 5456 5059
15 493 7901 4050 5214 6203 6234 4722 3391 9957 5755 5791 2182 1473 9558 9058
10 8806 3397 5271 8392 9315 6972 1007 7742 8554 3043
9 7134 8081 2995 1670 7568 4747 4160 590 8607
10 6138 4035 8197 45 1766 5867 7317 6118 3791 3458
8 9610 965 7915 9328 4138 6997 9243 6944
8 4630 3197 2191 163 4336 7128 8985 4483
14 2429 1194 7014 5100 3052 1707 1268 3175 308 8201 5508 5731 9577 5399
17 5335 3839 3532 695 2268 8166 6396 7848 7299 721 8608 258 4883 1659 4103 1254 7855
12 8338 9890 8918 7529 6897 7265 9535 5062 8572 6687 3286 6870
3 5890 9075 2573
12 8175 8652 5050 2075 7101 9372 8598 4691 1195 8594 5745 2554
13 268 9513 4561 614 1370 3440 3348 6731 6614 7391 5688 611 6022
8 8632 804 8369 3224 2819 8770 8925 1006
9 2299 6975 5183 3759 411 7152 8825 5432 1204
13 2846 3909 2467 6513 2345 9603 8418 3415 4041 436 8959 8384 557
9 9602 3461 1372 9757 2231 6486 53 4736 4719
6 1040 8955 1449 8140 6714 4793
7 1560 9186 3536 1074 579 3771 4861
9 6089 178 30 8212 515 478 5542 5774 4417
14 7451 3203 5442 7627 6629 1029 8045 1895 7854 1129 598 2940 2816 479
14 533 1797 9633 1834 5019 1373 8680 2792 4633 2474 9637 3035 6246 7767
13 6222 9809 8094 4739 3525 9285 925 7910 7659 4640 1377 9700 1244
14 2626 7203 9611 1876 3856 1275 4771 9807 8894 9260 784 4142 8216 630
14 4758 2335 5771 8007 996 1124 7667 4773 1021 1225 1366 60 4501 8712
13 1784 4677 2340 4097 1621 1638 4480 3911 8839 5825 7402 7154 2322
9 3817 9121 3467 5775 4010 7051 7719 8837 3427
12 3580 6756 3477 266 9641 9425 1974 4254 6028 792 7436 2337
5 622 8869 6085 7619 6090
14 462 4892 357 1814 9188 7517 3815 5752 8235 7242 8726 840 845 2208
10 699 8225 592 5980 9399 2807 5839 9253 3679 757
14 8102 5751 2156 7967 8108 8246 2279 743 393 9271 5869 3028 1378 325
16 7929 8564 5425 6125 3802 1168 1096 3011 2991 5468 717 1437 6594 6911 2152 3886
17 4020 9628 1221 168 665 2037 6920 5722 4754 5696 7367 7938 3158 2258 4697 7215 966
15 741 761 3938 6248 8973 9403 3152 735 2101 915 8704 2752 9794 5644 5753
7 4657 169 2602 8987 2099 3559 6453
12 200 1281 7823 2437 6854 8436 5286 1928 2747 6782 9993 4022
15 8420 608 3220 1106 3701 15 5611 3823 5110 3166 8238 5653 1599 7307 8337
12 7445 1580 7422 924 2789 6758 6802 988 6236 1356 6214 2664
10 7934 1475 52 4263 5587 8813 8107 2750 1144 3870
18 6875 5615 892 1845 4331 546 6909 5373 6167 6459 5430 3094 2844 4162 7042 7831 7283 8013
2 1563 1855
11 2008 5343 2230 8631 1117 1785 3762 8948 7241 9430 7223
13 6252 6716 4634 2063 7076 8336 6229 3020 4918 644 4931 7606 1288
14 3988 610 417 6942 3465 5262 3907 8646 4419 2067 1903 5147 5467 3880
5 5243 2861 1485 855 6143
15 6695 4109 3319 3574 293 6033 7353 6162 5826 2929 145 4448 5850 4716 4592
16 29 4833 2455 789 5405 5756 9682 7047 569 6761 581 5127 1274 5790 8196 4759
17 3420 9538 8376 7197 2804 4394 1383 8068 552 5687 7029 7324 9189 2516 2223 1662 6479
9 6694 3208 8588 9463 6642 1875 5298 9587 7678
3 1273 2963 5982
7 5976 7551 1719 2851 8866 6941 8994
10 5143 1715 8058 3361 8537 1759 5597 6576 2326 234
5 6657 9483 3664 1951 406
7 4549 8103 8357 5842 5431 7235 6063
15 5433 5899 5219 3606 7351 8776 3336 1368 1742 2749 5889 7624 587 3204 7617
13 7499 7278 3105 8075 4821 9498 9112 1650 8922 5384 5813 2049 9876
14 6457 6912 1743 3241 8533 1839 3730 9798 265 438 2656 5446 9117 8789
9 5371 5206 2902 5762 4567 4118 144 8002 70
12 1867 4104 177 8815 1457 7185 4943 8389 5883 8490 4922 9472
12 2320 2967 7629 1065 105 3318 1360 3516 5492 1726 4392 2450
12 9133 7830 7208 5715 5163 4188 9664 8390 8845 4191 5175 4650
19 1697 596 9156 7558 5170 133 7339 1351 2860 404 5454 2144 488 3837 6853 5266 8131 2090 1247
17 6239 2754 1693 9089 294 8193 7167 5233 2226 861 7930 9461 3064 2307 3812 1507 980
2 4959 4796
11 4699 8182 1767 8245 1890 7841 5000 1085 6464 1137 2169
8 5628 8030 5853 9418 7359 6314 7202 2070
9 2477 2966 1145 940 4381 9732 8677 3504 1038
15 9733 1491 4965 9724 6488 8283 7608 3452 4748 6397 3715 3931 2373 7978 2615
7 7575 4182 9501 6545 6999 224 6494
11 6026 8099 7132 223 2542 4576 725 5138 3014 4432 2909
15 6523 3036 2706 7009 2309 9969 2199 2183 5707 5272 4308 5264 7533 7138 8174
9 530 2852 3561 3967 4014 6504 8387 7240 8730
13 2293 9171 9900 4491 2234 4459 4718 1420 1214 3809 389 6152 5798
15 1777 1232 6814 7370 9849 5451 6211 9488 8669 2484 5475 6631 8226 1559 3569
12 3029 3057 8339 5016 7365 4166 8936 6097 7813 5294 811 1704
14 5808 9815 2497 5291 1166 4701 2125 4900 8345 3906 165 7079 1462 7989
13 7287 9052 2399 6025 2473 2560 9982 5328 6285 6995 4554 7175 5398
12 1299 3896 1417 8822 2533 9343 3023 6099 9909 2873 6918 2508
15 4709 8760 1832 4970 5128 9201 2428 9373 7918 4945 2038 9827 5111 3665 480
7 1564 9842 871 4019 639 7453 9569
13 3758 6745 8334 2876 9605 3713 981 9997 7725 6278 2055 573 2252
15 7965 3867 7592 5733 2389 7925 309 6500 8230 5550 8441 9885 4908 3595 4383
6 5636 1245 7693 9320 6925 3827
15 6633 5205 1557 9070 1943 7579 7397 4903 4738 9843 8096 7437 8641 2238 2243
14 5086 6502 1684 531 1889 500 3834 2066 3600 8895 562 2677 3097 4305
9 117 2181 753 3121 877 3437 4919 9740 9309
7 5222 3947 8071 2650 1663 4197 6770
1 8824
11 2742 2696 1034 5785 6773 6688 5518 8753 7044 5828 8907
14 8758 4643 4327 1395 692 386 2012 6126 6105 1706 6230 6828 5637 2257
15 8459 6410 5866 5710 1810 2535 3178 9865 788 8716 4339 5973 9891 1425 5415
12 6784 9438 1820 2154 2380 2487 8663 6988 2349 7356 8036 1848
14 3245 8328 4585 4256 979 9205 3979 2365 4952 3240 9005 4361 3611 8900
15 6822 3049 9078 6202 5453 633 3233 6754 1423 7532 2469 4580 8113 2170 4185
11 9216 4687 3196 5920 5748 1429 3462 7122 108 424 5173
10 6570 3314 3843 1296 1535 5275 9921 1642 392 2824
11 8832 9072 2150 3684 4488 5621 8249 2862 5848 7038 6390
13 1734 6718 1200 9370 5473 4101 5360 9825 1400 8913 6384 7834 4563
10 415 4587 8446 7662 6709 9107 712 6521 7641 1540
13 7849 6199 1973 1714 9456 7858 7514 5797 9147 1064 3558 1343 1403
11 4787 5725 8961 495 9688 6823 9021 5239 1258 2814 1962
17 3510 1489 982 3247 3673 8904 2129 5577 8141 1205 1744 2625 9644 5988 7996 2318 8311
13 1995 4720 4063 10 2148 5002 8600 6684 7261 5392 6690 2529 2165
14 8447 7477 5375 8416 3648 8993 612 4916 185 8522 7031 3941 6087 9119
8 7948 6349 9312 124 4215 231 452 6448
14 3735 7222 4055 8811 9350 3385 9115 5463 9527 532 4778 8083 8501 3153
15 9412 2780 8268 7217 8312 7091 3933 451 9269 6166 4403 2908 3488 1089 7985
12 2432 9130 3271 4168 1154 7238 8322 932 4548 4492 3012 7057
14 6455 172 708 5660 369 935 9155 7262 1243 576 5618 6315 1987 131
13 4167 6406 659 9643 9170 7747 6668 4023 8570 9250 7784 8333 6193
3 8737 3981 6544
3 957 6024 4887
12 5341 9649 4372 970 1918 3517 9750 8199 6294 9749 4929 2770
11 9901 332 1603 929 1945 8697 5270 6154 4390 5607 910
9 1414 3921 1330 2390 7440 6793 3767 3926 9999
10 6916 280 9222 9264 3774 5157 3179 6616 5631 7708
11 3394 3326 7414 1702 8496 8394 8139 1238 1408 3115 4268
10 8653 5998 5284 9231 7671 3503 1452 2683 5024 4812
10 4966 984 5858 8231 1 9124 2376 5931 44 8611
10 5025 2480 7940 1411 3246 3898 110 9642 3048 3950
