3 466 4032 9307
4 516 2634 283 4087
6 5956 2953 3578 224 7774 8311
9 3171 987 6215 9389 6071 5629 9025 6055 7368
8 7780 3358 105 6002 1939 6598 98 9604
13 1126 8489 8982 1366 2742 6771 5173 3237 7966 7850 3668 6830 7364
13 4243 1724 5964 9177 1073 921 8101 4613 347 6053 8978 819 7796
15 167 7163 6224 1215 2893 6492 1743 853 3032 4780 9766 7804 4600 5280 5453
17 6284 2135 813 7190 39 567 9233 5477 772 1357 8342 4029 9813 6303 120 7690 6091
18 6595 281 5028 4064 5304 7776 4776 7003 5034 7956 9715 7945 3081 5294 4940 9404 1596 3595
18 7694 8680 9658 9545 8976 5924 2245 5827 3690 6469 2190 1628 5728 4297 9347 1916 7534 6148
15 9488 6190 6727 6280 5760 6263 3115 5089 9026 2437 4320 1454 5216 9018 2436
18 7109 9184 2574 851 3508 5327 7877 6951 4845 3980 2363 6517 186 1718 5507 6932 5178 1289
20 8983 477 8273 5705 6304 9055 1519 1988 4737 8825 5468 5788 8809 4416 5110 3906 2099 4832 8670 63
26 6428 9696 6509 1809 9874 8150 3073 3193 6387 5816 6875 1624 4899 6525 8229 5025 6548 316 8243 4783 1615 1323 5365 7908 4821 694
17 9236 5298 4446 7560 6448 3971 5651 9684 2347 8763 5536 7106 7934 6142 1778 2497 9138
24 1285 7309 8143 6635 4219 4774 1044 1630 6060 7258 2581 3639 9114 8065 4075 9523 3687 5471 9001 2516 1136 7839 5065 5107
20 3179 4980 5910 2401 3090 7393 6186 933 9964 9434 3963 8580 7920 668 9536 1875 2879 9481 3143 973
25 1566 9543 2198 3348 4694 373 1303 3284 9480 4359 1230 5061 160 1019 4287 5337 5391 8891 9164 937 6960 8964 7747 722 9895
20 8995 4076 6233 9029 1436 5379 4815 2974 9237 2035 6903 5665 5158 1594 8174 9113 6524 5007 8265 9784
17 7724 5696 1787 4194 2931 4812 4572 2362 9578 9514 7508 439 9423 3305 8715 3048 5987
19 3181 6754 4788 5177 3487 2017 2872 3056 7064 9512 6568 6122 9086 7263 6751 3226 5513 6279 4644
22 3155 1942 8701 6710 9380 8645 6388 5081 5199 2379 3615 4670 4731 4022 1859 9074 4959 3045 9642 4735 1079 6246
26 3353 3579 6935 1322 2868 199 8734 8755 7948 4054 361 2839 8643 6555 201 1586 8510 2434 6324 573 8916 1270 3422 2952 4539 7887
26 4066 6677 1668 1749 2520 7001 6483 3576 7975 354 4016 2871 5172 8531 6489 8902 8192 1686 6356 8061 2881 3404 1773 1793 470 2254
24 6975 450 5206 1562 8328 8067 2826 369 3939 1684 5602 3282 7403 3483 8169 692 7396 749 7726 7817 3008 3021 6576 5255
30 7427 6699 288 4976 7227 6747 7473 7284 9812 2276 5913 861 4706 3473 3263 1180 4253 3750 1497 6981 9342 1254 2667 1361 3931 8240 4712 5953 8694 6627
26 207 5171 2992 5619 9808 6856 301 4401 2948 5874 4074 9716 2690 9726 875 2665 9972 3994 1337 8712 5559 491 1184 7854 8392 9346
27 2648 3496 6117 2736 4718 1178 7675 9267 2947 4130 6321 7750 650 4704 2366 6101 8252 3559 3141 7490 5864 806 9045 24 2267 2587 5392
26 8339 5952 4529 5875 9439 425 6296 799 5519 7159 9674 4085 4404 8612 9656 5328 2160 5599 3948 1981 891 8792 1027 5897 3159 7820
31 9890 7662 4088 9930 7625 8620 4350 8036 4758 4882 8901 7888 8217 9405 5242 5986 4846 4208 3230 1514 5358 2905 2340 2104 3157 8218 8583 4235 9724 6787 7414
26 45 4067 3534 5671 9329 5360 5802 5440 7706 3303 8095 9214 6689 9706 3178 7504 3864 4462 6688 2211 7164 4995 9030 3074 8096 2103
25 6610 9891 2003 7430 2096 5084 6256 8794 428 7112 6545 6306 9893 5640 5750 1729 5203 7469 7463 6929 8077 7261 6663 9802 2288
26 1788 3268 5244 238 5201 2689 9763 8384 623 2226 5692 5060 3621 1582 4513 5625 1658 1937 8068 4913 9916 4962 4714 3006 8194 3952
21 7648 7867 5574 9537 7405 2502 5198 2324 6106 2899 9875 5981 7281 6916 65 6762 145 3913 9192 7134 6422
28 862 8678 1768 130 1505 1575 2960 1557 6976 5330 6147 2741 4434 9409 588 5498 6957 6880 372 8567 2498 240 8596 9403 6587 4256 2936 3227
31 8205 7006 5134 7528 2253 9407 7087 4387 4089 7927 9760 7740 5606 2753 8996 5958 4470 5131 7433 6199 9686 4721 730 6972 3355 9100 6235 6942 8114 9770 5193
32 5798 3911 3064 8717 7719 3300 3379 4281 2076 8558 1879 9367 2108 4043 7189 9000 1432 8557 6109 6281 8160 634 7705 6153 9828 8484 8501 9349 869 4871 7911 3399
29 9475 701 1752 5857 9489 8569 8458 5064 5689 4749 639 2837 1783 758 3004 4305 7495 4709 7905 6248 7192 5548 1022 1369 7470 8945 6656 447 3767
33 4753 7689 6562 1433 6690 972 6893 5974 4985 2413 7739 984 5443 4118 4451 8459 5141 5922 8716 9602 880 5677 4746 4517 8376 3796 6029 6722 9152 6680 212 4625 2338
30 9321 7782 61 8745 3036 8603 4785 5530 1618 6582 7792 1667 920 254 4207 6180 8495 8054 6297 7 29 4848 9193 8749 415 4695 6442 696 511 6906
33 4759 2069 6752 8389 2310 1680 9919 5096 4316 1698 1721 7588 7099 5577 8221 514 8016 5458 7266 1041 770 4173 1277 121 8117 172 3652 5618 1522 341 2582 1637 4361
37 4397 8699 629 8368 147 6409 1620 8182 1545 7105 3817 8437 5830 2004 9311 7363 6072 3928 8171 4837 3089 1510 6834 4013 8388 4362 5575 4407 3274 5918 2291 9555 7270 4419 3531 4659 7207
31 4467 3260 5598 2201 6007 9975 1821 1317 3234 92 115 8341 3747 7700 7499 3884 5672 7963 329 5363 876 4176 6040 5402 5344 4619 5698 5717 9841 8314 969
36 4398 8781 2524 1373 3556 3784 6230 7484 7122 3974 4180 5132 4448 1706 7681 7795 1845 9801 2127 1324 8173 2529 7224 1974 640 7711 4337 6203 2501 3979 9829 6626 9782 1235 8395 5517
29 570 1831 1359 9416 2085 795 9462 1525 550 8728 718 5289 2683 9935 4365 8401 2333 6528 1008 7799 8556 2398 547 5526 8928 4354 6189 7775 2388
38 1141 7735 5846 3765 9797 9459 2137 3318 8442 9986 8289 1020 5297 3315 1771 1142 1382 5746 1050 3754 1426 4663 7818 8408 5234 3424 4381 7413 4412 7435 371 3589 8768 9607 3071 2678 9932 4347
31 4805 3632 5511 5815 7890 5896 3335 9107 5739 5496 5490 4823 292 8721 1046 99 3287 8029 6127 5893 1513 7665 8126 7972 6713 9563 9579 2616 3038 9109 6202
37 2038 2414 3302 5942 3536 4472 4566 1643 2068 9250 2967 8140 8942 1413 2231 1611 5246 2700 7716 7226 2222 8719 8451 9950 7220 4741 8708 2093 6920 3734 2189 3218 9731 3366 3540 8816 2451
47 3440 8346 9446 6046 6504 949 7185 9121 7840 91 7142 902 2415 290 9973 5429 1723 2923 189 9185 863 8560 7033 611 604 7273 5605 1649 5697 3475 988 9744 1155 8635 8852 7440 2559 8203 652 9947 3092 6094 4526 3106 277 6301 2894
31 1204 6729 8027 8277 9848 4465 4687 9332 9628 5118 1102 4851 5731 2492 3638 8379 6691 9102 9859 8323 8788 8058 4798 3779 9244 852 5621 9786 9163 6216 7527
40 3581 4259 1257 1659 9504 690 8463 2207 7745 1971 4732 7056 6508 2632 4750 7808 4541 4836 8208 1379 7646 6984 5620 136 4744 7954 6840 9004 857 9181 7617 4840 575 5780 8743 8548 1551 4418 1868 9212
37 4801 8625 1196 4476 1390 3741 3420 9310 51 2052 6586 8536 4601 4583 1135 2387 9011 8133 3327 7510 8704 7497 8354 9402 3613 6858 4222 7858 127 166 7729 8317 8771 5877 5044 411 6575
43 156 5388 4878 5209 3009 1644 8464 8957 1064 5012 1082 1852 2651 2943 384 9780 997 8938 9279 3401 4276 8200 6521 3650 4596 2173 7350 761 8181 2159 6290 4326 9667 1957 2275 5092 1655 3474 5789 7399 9431 5561 531
30 6198 7151 676 4639 3513 8005 420 4726 7037 4047 8931 9739 4925 4488 8210 8336 9896 2259 104 2605 1153 7687 2618 5593 3467 4540 2810 849 6632 3082
33 8103 1437 4415 4514 2337 204 392 5781 3670 1292 6882 909 4343 4288 4340 1 1710 244 4301 2898 8380 3658 2177 6631 344 4271 8081 1385 8374 8298 3530 7049 6405
39 2717 6959 5545 460 4018 4082 9708 7412 7317 6329 5769 9634 8623 2122 6997 5905 8332 3942 9359 1535 3184 595 8321 5444 5087 3395 9313 9399 1031 4510 8032 8660 2329 6496 2431 3870 4915 3116 7264
37 6599 9435 3367 7957 3412 1299 3151 1767 6572 9363 5350 2120 394 6082 58 9299 5880 7365 905 8703 5421 6031 2787 6254 2566 7306 3219 455 8542 638 5430 7174 8774 6955 3529 6625 7649
33 854 1608 73 883 5401 2021 9835 7466 3131 9792 7557 7146 14 6963 4609 5415 3252 7506 1945 3294 8202 783 2405 9788 1634 3311 8893 2544 5712 3901 3829 5320 2084
38 8434 4937 2049 8204 8494 320 3243 4885 8876 9281 8153 9057 781 1091 6601 9334 2631 9598 3571 6649 3261 9345 7959 1438 8280 9318 3438 197 8823 9978 8782 3406 6881 5928 1559 6898 9799 8799
43 8850 3149 7516 6563 3347 3225 2644 3205 3037 8262 1118 4691 9093 715 4168 6927 1742 1034 7242 7656 6904 2206 193 6758 3408 9316 7783 122 4142 520 8127 4150 737 9285 3717 2779 3601 4461 2467 7654 2956 4978 960
36 476 6600 3698 6756 930 6452 745 6473 1269 5384 8808 2760 76 855 5817 998 4902 7630 7437 1645 9843 4781 3626 9652 1479 4061 9082 1943 7090 8305 9358 870 3080 9556 7577 9600
42 5030 7256 5703 8399 3322 1049 6123 8266 3528 8737 3984 8911 8687 9885 4017 2028 5018 2148 1489 3695 5015 4779 5356 9325 6802 3013 7314 5853 4203 7017 9433 3498 442 1287 4688 1115 8776 6755 7123 4585 5674 5921
42 94 5245 1909 2916 7603 3851 2053 80 7993 9870 2183 9690 7243 4002 6310 2235 1171 8223 2475 9400 1047 6807 4557 180 7079 6777 9530 3564 6107 6391 3542 859 7746 9143 7930 7214 5317 6269 2249 4097 5273 2994
39 3363 90 4766 2874 8134 7060 8829 8575 8250 4950 1609 472 5121 3743 2897 5292 8482 1392 270 5187 3960 1720 9016 1332 2356 8508 8818 6022 6408 5813 4811 3421 4827 8619 1399 7805 8479 6596 4964
41 820 5233 5387 5031 5151 6262 4393 4975 4828 6419 1603 4229 4929 8511 3058 4658 2389 5306 6399 7702 6624 8370 299 9730 2596 6394 2575 8485 3729 3510 8343 2866 2094 5926 9586 8105 7997 1503 7655 3375 6588
38 9601 7047 3681 457 5126 9274 7680 1349 9127 1908 4376 858 4918 210 9424 3677 7622 335 923 4357 9396 6558 9608 8739 8606 9069 6222 8846 5215 9080 2357 8011 1464 2493 1738 9827 6511 6479
32 5254 1415 3903 2205 289 8991 5863 3158 4577 2835 8350 5691 8124 7757 1341 7874 7067 7827 7169 3521 6801 6076 9953 581 1975 8880 9968 1851 3808 5638 4901 4329
39 6440 8057 2090 9992 4944 9454 9937 4096 9133 7356 1549 3069 1419 5811 7007 4546 628 3250 7196 2327 2047 2131 7333 8300 4537 1857 7551 6086 1576 8018 6308 7951 287 3826 4135 3857 9768 5486 7326
40 6042 8039 2563 1691 9695 7026 2239 3139 9856 9339 8238 5070 8832 7928 1919 8661 5611 3389 1517 1057 5013 7210 8161 9048 4209 3947 8690 3112 9022 235 8197 6532 1263 7741 9003 2925 5851 5991 6413 519
39 2156 3832 5934 8026 7969 5658 8904 2955 9970 6357 1000 4914 8899 7459 339 6836 3463 9421 8867 2420 260 1733 7254 7451 1501 1183 6661 37 9524 2938 9912 5032 4998 4268 4897 4111 9354 9418 647
34 8709 4543 1835 5456 9943 8532 8541 3785 5793 2050 3975 322 916 1621 4167 6962 1195 7848 3466 4928 6349 4675 9331 3838 4105 5985 8979 3760 9991 561 9697 2623 1911 2423
45 4119 3233 3720 5889 8415 5675 1100 9699 7116 7621 6854 1242 9889 168 9089 7785 4179 2998 5993 1418 6996 3723 318 2951 864 9195 6372 2172 5753 137 3022 5305 2454 2990 3943 79 7156 2999 3985 1727 4923 503 6730 7756 3232
38 526 5500 5503 9940 357 9027 2775 2301 685 4457 194 5382 4223 334 4092 9365 3393 9256 7271 6170 3068 6853 3485 3751 5164 6067 6158 6273 1375 2927 9517 2942 7029 2968 2585 4063 5269 1651
39 4960 6005 8549 5144 15 8958 3429 266 644 798 6646 9326 9570 7898 9140 8847 5331 1156 6958 2460 8086 4606 5743 8357 7892 8962 441 7332 2567 8244 5787 1105 4548 7772 5481 966 9544 4364 9558
35 9049 5919 2711 571 9777 4231 6057 1174 8486 2989 1683 3336 7939 7340 8538 3003 9552 2225 1950 5841 3276 8705 9105 8405 735 7520 9170 2505 6637 7789 3962 8402 1665 1993 5738
40 6507 8835 3460 9366 6925 9385 6718 7974 5969 4831 5142 6860 1435 9809 4425 4602 278 1416 3961 6775 4770 4863 7786 707 7599 7204 3002 8104 2824 9065 4961 2862 6181 8682 9094 7926 824 6952 9941 1648
40 8849 2996 1038 6671 8851 8513 1160 7916 2318 6847 3850 4565 5137 7237 4218 922 4328 9066 4740 5252 538 8259 9162 3600 3964 6196 9176 828 7754 3163 5560 2533 4411 8582 4680 8585 1533 9015 4690 5666
38 7674 9635 3899 5461 879 6554 6105 8178 1306 1802 5074 4413 3407 116 9458 6044 5191 3657 2326 2006 8139 716 100 8973 4225 4445 6852 9722 2856 4908 5521 5527 41 4890 6542 126 7063 7688
35 6430 2442 5237 7442 3764 2168 5525 1639 8441 1081 7268 3415 2165 7088 2549 2466 812 4554 5165 9938 7736 6455 9657 3627 7666 4681 8522 6490 2105 1446 5374 5970 7194 3570 7917
35 8450 5008 7235 9183 8793 409 2511 5699 5106 3174 9618 6811 7853 3470 2445 9046 3602 4399 3052 9746 5656 4536 3977 1811 3841 6077 1305 1227 617 7002 936 2809 8631 7187 6804
44 3016 552 3312 2940 7416 1422 8910 5435 9461 2679 9733 5407 4997 6666 3228 2116 5249 1176 7150 1467 3061 1719 7102 3567 7206 4475 7141 8312 3809 8600 7269 7182 1500 9364 1546 1815 7807 8164 4384 1071 2807 7568 8465 6614
35 6261 6392 7096 4126 7572 9467 6295 5861 358 8877 527 6145 9010 3684 8990 8529 1780 5393 4220 7198 4971 5085 2360 7524 3450 1682 8695 7152 4224 2119 9869 3957 8387 711 5211
40 5832 625 4701 8282 1822 3118 9242 5759 6615 3654 4003 8655 6188 4021 9750 1003 1701 805 2800 7124 6644 744 248 7447 9005 1850 7825 727 5217 8929 5232 2248 3909 3663 9293 8037 8412 3188 9204 6090
39 2822 804 7855 7175 5595 3283 6868 4252 4553 8913 3486 3489 5512 8398 2303 5509 6252 310 8752 3927 6146 2910 5123 1591 246 6514 1463 6702 6848 6141 6325 4973 4947 4352 3719 578 6038 2719 3810
40 2870 6197 596 5241 8324 8327 9494 5901 2748 3439 4306 4500 391 6672 7766 6176 782 5135 9757 6594 386 8420 3088 483 2827 1157 346 9369 9108 7048 6534 517 4895 8918 5050 3918 1791 2494 7162 592
41 719 327 4852 7313 9360 2304 8950 5416 1604 365 8488 2266 9725 9994 5238 1647 1460 6178 522 1353 297 756 1231 4911 3976 9088 1569 4528 2621 8287 9819 6782 8554 1266 4762 637 5591 6240 9838 6121 8909
48 5876 7229 3209 3991 7918 8615 3844 6485 4302 6411 9477 5596 3604 5425 3545 5501 7811 2808 359 4930 9261 1170 533 2300 3641 8757 4162 7103 2164 3773 2750 6383 2628 6243 9550 4449 464 2691 2709 8953 467 3758 5489 4556 9410 6546 496 6172
44 7849 7642 7639 523 563 1140 4436 6275 8697 6816 6359 7316 9798 1304 3863 3055 5404 2262 9287 249 1494 844 9169 7591 7628 5799 1252 9028 4102 5544 142 4463 7480 7376 4646 4984 2572 9023 9748 3062 5779 7165 7540 1199
47 9151 3902 4458 1756 9772 5797 1131 1414 2920 4273 8000 1810 2846 4204 3484 5309 3147 1929 6137 4813 7130 7167 3211 367 4538 4240 1346 398 5464 500 9518 8473 6645 5933 293 296 7987 9977 2197 1728 4666 4580 5285 9580 7362 4037 1635
46 2584 1424 3258 9621 5086 4175 2519 5166 8634 9356 2908 2238 1735 5856 1849 7068 67 4598 9381 8498 2485 3869 9981 8107 7127 1291 6604 3357 7255 9623 5300 4039 1790 3527 2095 2571 9894 6495 6435 2786 655 1212 9343 4576 5885 2107
45 3665 8949 422 2768 4165 9585 5446 4358 4640 8588 8477 2799 2078 300 3543 8605 2811 2032 6166 2278 2364 7635 8537 3569 776 1234 8069 1979 6733 4342 2865 9034 6136 621 2776 4518 8236 3161 4422 3769 9882 8351 9969 8385 4916
40 1826 3104 5069 4238 6313 5949 5022 7349 7296 5168 8874 3565 7522 4564 4952 1695 1972 4423 2615 86 5565 6884 2625 6054 672 7446 2932 118 7444 6316 9063 5408 8533 2844 6921 321 5002 6647 7652 9577
36 8372 5908 7752 9224 7728 5916 8968 1610 3388 6531 1792 3553 2404 9668 3605 9734 5056 2029 6967 2449 9142 2002 4324 7339 8308 1978 3859 8637 2537 4682 5257 4956 6806 1864 7272 85
44 7914 7901 1660 4169 128 2399 3682 8439 792 8831 5163 4174 6472 5119 8358 6183 2825 8886 8378 9729 6698 7737 1910 2473 9897 154 6023 5414 6536 8449 5776 4468 826 149 9759 3196 5633 2345 2789 6633 1928 6561 1397 7502
47 2995 8299 7871 271 8875 2140 7575 9752 1631 7436 4486 1412 5167 4444 7135 6609 532 7983 2412 412 3094 7587 3896 3978 7200 6518 2299 912 7879 8291 5891 5807 9275 1274 7895 7461 2796 7119 4702 253 103 5609 953 6149 4605 3642 233
48 9714 5197 6796 667 7020 1264 4030 9223 662 8553 2601 5900 1039 1207 8131 1045 6581 7429 1321 8509 4862 8475 4471 8175 4051 985 6124 3539 1090 6896 2543 8382 2875 5649 3478 88 4450 7457 2308 2088 9765 7843 1678 6498 946 5988 9982 6207
47 9191 9336 1805 7147 5693 2359 1167 8493 4792 9562 8214 1933 5441 7118 8371 9455 337 1598 3418 8333 5001 762 5150 7624 913 8767 5321 959 1388 5518 8905 3374 2282 809 3727 8736 9710 2523 7089 368 5845 7004 7608 3444 5690 9478 2507
44 9738 9157 4568 8592 8778 5129 4917 2914 5829 8897 7117 2738 2525 9420 7209 7767 1889 9983 5488 865 4199 9453 492 5594 2043 8056 1006 3935 6608 317 9691 898 5039 1538 1281 5795 6704 3168 3840 1327 7537 2016 1990 2791
44 4891 660 8472 4634 9075 1681 9590 2138 4348 3156 2132 3813 1837 4921 7377 5442 3456 3685 6544 3889 9666 8031 5447 9021 1823 6870 7669 8430 708 7933 9198 4319 6 8527 7154 6784 2828 9422 3958 7921 2456 8470 1298 2518
46 1134 5465 2713 9136 5475 4091 6983 8093 1229 9675 3648 4579 7925 4374 1206 5770 228 4215 3812 989 8148 2283 1536 6714 6940 3596 5385 8233 7241 8301 458 9206 5710 2503 50 8302 2214 7521 480 3451 4683 6271 5635 9860 202 1363
38 3875 7760 3247 314 5865 1152 158 236 9220 5568 8391 6918 4136 6206 6337 406 8601 7431 4230 5622 4654 8367 4842 3245 5623 7434 8888 5792 9036 5286 2991 7647 9064 6266 8574 7593 9918 2217
44 8033 1813 1377 3501 6294 6474 6444 2346 7201 513 1245 9762 4588 8123 7709 59 9012 5200 9228 6129 2645 2759 5067 9616 1336 7570 3031 2580 3365 1902 4484 4265 374 5660 8043 6059 6377 6673 1697 9296 1954 6732 8898 9255
44 2234 4260 766 910 2858 7864 170 9123 1123 5724 1411 5772 3608 9857 1069 3454 6510 225 3828 4761 3137 4414 1225 9017 6839 1116 3342 1949 1699 9306 8427 1443 4733 7523 3614 7544 6159 4954 3101 1991 9847 4747 7722 4188
42 835 2823 8152 498 2614 9612 590 1487 7605 3479 8211 5189 5659 3277 7771 9370 6721 5152 6006 48 9712 4023 3788 1026 7814 1663 206 1202 2284 5380 6335 3493 8803 6533 6305 6028 4793 2059 9330 6061 7718 4678
43 9670 6845 839 2152 6864 4311 7845 7769 6634 6795 9451 5133 1256 5906 3431 8191 5803 3798 6763 5220 2220 5075 9430 3129 1973 5810 4649 1757 1078 5339 3221 2619 5765 9905 2626 8241 1333 5747 4380 6404 7474 5418 3107
46 1959 4760 9814 3210 8657 89 3201 6889 7944 1165 2247 9231 9126 2286 8369 2178 9216 6780 3317 9414 5346 1122 2757 325 5573 9985 7083 3900 8059 4427 1953 6420 7073 8985 2732 3426 2491 4664 7791 9987 2907 8744 1345 3285 3876 2149
41 1179 7937 2550 7793 8073 2526 9836 7327 177 5277 3144 5222 7816 4696 403 6993 2589 3446 9207 2204 2193 6841 7208 8608 6641 4920 4755 9013 1331 614 8045 1378 2264 427 5678 7852 7371 2481 825 8887 3818
43 4830 5837 405 5771 4710 4192 7176 93 2313 252 3167 9153 4163 8677 6590 778 1642 8925 1963 2060 5982 6628 6724 7550 7640 5099 1814 1687 1110 6986 4270 9020 2976 2627 2749 9398 2487 5736 8539 4345 2296 5707 3708
40 4611 2378 8267 3953 3442 8756 7910 311 3904 9415 4647 753 3563 7838 3807 2939 4351 9876 6350 1977 9647 1265 3822 4405 7821 7565 7303 8344 8188 8648 6769 9124 717 8895 8959 8062 7294 2901 6480 5644
42 7678 395 1191 2228 8766 8046 2840 6128 8001 4083 6185 7409 8862 1867 9218 8335 6298 4011 6418 5505 1931 2660 438 3097 9137 2461 7085 4283 7445 8633 8433 3661 2203 8658 8731 3083 9388 6737 7978 6173 2611 9741
45 612 7014 874 3259 8681 2058 4597 3281 2728 4251 6675 525 9260 8325 2011 5124 4689 7941 6665 8038 1146 3786 7221 7994 6417 9597 1043 2073 2458 3966 5715 3699 5180 2638 9713 2478 6660 1820 5491 8070 6371 1739 1690 5473 75
41 187 1764 5886 3391 6410 4495 7149 1689 5784 0 2562 1307 7614 8213 7802 6191 1182 5504 4633 30 9681 815 8226 1970 9920 6642 3725 7452 7902 4155 4705 2046 3936 6654 641 2911 3030 9188 4635 1508 6491
43 3039 1109 1512 5324 6255 7259 9915 9648 5587 1516 5175 3298 1144 3926 6908 4090 9547 1054 8461 1581 8034 2271 3549 1075 8930 1284 4245 8738 8014 5140 2483 113 6569 4631 8779 2311 677 8487 2371 836 5284 7886 697
44 5266 352 9868 3551 2876 7232 8966 208 1794 5348 8970 6522 901 1326 620 3637 4782 2382 7157 2743 9694 8650 6629 6075 1781 7578 2272 4778 3768 3924 7657 6636 3910 1108 3208 6667 8272 9687 8941 7841 1946 2155 3517 4131
43 2851 4804 6200 1247 26 5258 1961 9241 7022 7061 6393 6547 4630 2654 6708 7071 8815 2397 2044 2019 1308 7626 9823 6120 8947 829 6934 8806 9603 8789 9508 2302 6293 8810 7542 6360 3148 340 9573 4866 8683 3555 7559
43 9053 9589 1746 6363 2186 1241 1055 7777 4134 2680 9178 5514 2629 560 6238 1934 1490 5782 379 4027 3400 8155 2229 9867 6193 9298 9132 3538 3133 9374 4336 5091 1786 1449 3940 5466 390 7008 4643 4685 2007 6164 4331
47 3636 3827 4794 5653 3582 2747 7607 9546 2771 1904 1759 8700 363 313 2030 38 9654 8824 3635 4081 7025 5006 8597 6438 6396 2309 6343 2754 7943 5271 6913 1475 9849 8838 2109 6260 251 7738 1428 7900 1891 3956 4963 977 5033 3634 4171
46 2734 1925 4574 2785 6664 7279 6481 6731 3573 5850 9753 2917 9425 3215 1423 7336 1548 2325 2903 9344 9290 6282 1906 842 9473 9429 847 9125 4508 364 284 4651 6579 752 9291 9277 2257 9542 4346 2067 7837 2969 5042 9643 7341 7234
52 8141 750 9791 6092 3462 3177 2352 2024 5714 7065 8718 4692 1707 9554 9531 7330 3362 3925 4990 6552 1371 6115 3568 6591 2187 3499 4149 6288 6939 5927 9614 5047 1722 5888 7594 3309 9205 4267 9637 1580 651 7280 860 4274 2400 5372 2829 1106 6390 1367 6537 6835
41 2603 23 7343 702 2051 9790 7180 4969 9395 6436 8993 7374 5023 7062 7305 7039 4290 140 2686 8334 3152 3674 5026 4310 6946 1334 2486 6047 6467 5932 9348 8576 7052 6943 5711 3173 9767 2850 6264 6843 8629
47 3756 4949 4060 8870 4327 1558 404 1025 1441 5682 1151 5670 4880 8274 5838 7670 4665 1226 3402 1796 3700 9923 8621 4072 2979 5394 8671 992 9511 9226 6131 8785 5684 1018 4979 4907 7517 6867 5907 2959 8228 8290 1150 3872 7806 6088 9958
45 7633 5645 8118 9592 9956 5263 5051 1004 7800 4478 6538 2289 5183 4031 8689 161 5818 5083 2416 9501 5426 3067 4496 9567 5688 6938 5778 3566 7372 1381 2377 5785 2729 4108 8955 9633 1543 6783 556 5960 3381 4767 7460 124 1154
47 4523 1769 8595 8383 540 4050 8584 8834 7513 9583 499 2281 1301 7661 9526 9728 3434 564 4295 8686 3730 5804 5758 4883 8720 8519 2128 3162 1619 7160 3296 3397 1570 2545 1527 1374 1714 7411 5809 9041 6988 796 1550 3024 3580 7555 6441
44 2150 7148 7132 528 6857 5349 9732 9816 6766 8526 2608 4394 8572 4545 5355 1248 6715 2260 5791 8035 3584 1632 7999 370 72 6285 5676 2471 366 4912 5319 7197 932 8802 9253 4877 509 6169 9474 8187 119 2957 8307 6051
44 8097 429 7351 2141 2343 215 8500 7347 939 3182 7693 2624 1259 6914 7032 1650 3175 5716 6365 5971 9295 3253 7023 8839 6529 5722 9840 8951 114 7619 8706 2721 8247 4615 731 2514 1295 4257 3072 7066 5410 2661 9154 6014
42 2921 4071 6597 9515 9520 1913 1238 3619 3079 1541 576 7415 3313 4262 8505 9497 9845 6892 6398 4477 1272 3325 801 5463 4991 5288 9271 7420 7092 6477 9879 6139 6431 6717 426 396 9904 7631 9866 7178 1099 5823
51 9058 1824 8961 6980 4808 1860 2971 3410 6177 931 4093 9665 9315 4282 1368 5312 6584 6084 6069 4720 9051 6368 6809 6114 6291 9122 7385 4570 5642 1033 4453 3414 5179 3029 3862 1107 3165 8965 7287 1685 7595 2962 4291 3993 1601 7861 6947 8167 2157 4184 1921
44 5532 7569 8543 3575 3811 780 8663 4887 8711 704 1888 2499 5159 4079 3078 991 9529 2946 8337 9769 4578 6338 7231 755 6678 8230 5563 4234 6194 7034 5814 1782 4409 10 8088 2896 1237 1404 843 3328 3522 5844 2895 1268
39 6001 4773 8503 3 8237 6322 4048 5315 9149 3989 1986 545 123 6692 9595 1832 1828 6326 8827 759 8496 1901 4216 7548 757 4000 699 1583 3098 7730 7991 8165 3120 624 1484 2386 7315 1177 1445
47 5097 1816 8540 3396 4 4926 4636 5368 3297 8022 3520 1657 1121 1083 2457 3892 2522 8889 3416 5890 9651 2790 2675 7564 9596 8425 3740 6083 2726 9965 7571 7137 6370 963 5624 9032 1812 6013 12 453 9071 1473 4791 3403 2804 7471 7456
37 8502 6245 5476 5855 7244 7790 908 3804 9619 8641 9270 4542 4140 7586 938 8051 649 5357 4742 1748 8397 165 2455 5995 6679 4036 6799 2383 9576 9112 8110 8060 3345 9383 5551 6133 7215
39 27 6250 6351 1442 2677 5706 1898 5639 5090 4864 9376 8055 8617 7195 8552 3839 2900 2419 7181 2312 9676 9644 6219 9062 2102 543 7967 2376 8555 4571 4228 196 8981 5685 9615 2594 8819 5204 3436
45 8561 3860 1067 5898 1175 8471 6912 9961 760 484 6793 200 8723 5879 4520 7472 2857 2610 1262 3220 3894 7307 388 8707 7248 2181 3594 4826 2045 348 176 3736 9926 5576 4729 6694 6659 9865 9353 8516 1629 4592 1607 4353 6217
49 5057 3815 7030 8386 9984 3518 7650 4123 163 2298 3103 2674 4524 1725 6550 5055 4833 7873 7300 5909 6772 2462 4549 7673 2133 5038 7357 7070 8869 2733 6605 5607 1162 2669 8922 2612 3706 4360 5386 8935 7107 1967 2441 5948 2670 4881 4014 2630 1766
51 6424 666 688 7031 1924 3350 9378 9817 6113 7667 1076 6622 4015 3541 2950 5223 4325 5523 6434 6585 709 8020 5833 9091 6100 6119 1161 6965 6487 7632 1806 3967 9386 9319 9574 4849 6723 8647 1869 2063 8994 486 4138 3710 3041 6068 1540 1313 6157 6017 7021
45 1434 4077 3628 6890 69 9384 8074 7519 3898 2664 2642 209 5301 2646 521 9993 9187 8864 4098 4368 693 6998 4522 4893 4946 9509 1625 9911 5469 3509 5824 9569 7857 8940 5359 9805 9134 2834 3583 574 1672 7697 845 8753 419
43 7318 4447 6687 8431 2930 9096 8320 7028 5556 6944 5369 4055 4958 7875 9908 3435 7072 4986 9824 1358 4157 7126 5239 5236 6476 9266 7762 9521 9663 1703 8209 3673 7465 8772 2294 2926 3946 1393 3138 2444 5930 3554 9510
45 2652 9858 8730 2554 3694 3763 5207 5968 5448 3292 784 2710 9495 1839 4953 4497 546 7884 2761 1885 6426 1848 324 6695 4618 6788 8457 5866 1605 9472 5243 9661 6887 4042 1800 6828 940 8750 3816 8270 3202 2349 4708 7996 7936
47 3448 4473 152 6557 5557 2000 2573 2293 5680 5251 2873 6519 185 4117 5036 6318 4443 1585 7344 7882 8610 635 9560 884 1654 7093 631 7710 3738 1355 8071 8998 4569 821 5120 7342 4884 1626 5261 7386 9099 3057 6776 1638 2556 9873 9837
48 2805 1587 724 7566 1531 8797 446 896 3126 375 8072 8050 8285 107 1882 9084 5843 3273 3721 8666 1661 5540 9483 4033 505 1502 2723 5103 4987 1803 28 6662 3087 3070 11 2978 6317 9886 7125 7923 9208 4532 4197 8024 4058 3868 5470 7492
51 175 9443 3235 7946 5608 915 256 8890 291 5308 7485 1236 1300 9864 8518 8349 1354 3606 9952 9249 8278 9464 6716 6450 6786 5627 5484 7829 2806 9156 4187 3776 2997 3666 8795 8524 3933 7145 5992 1966 6583 6209 3352 4367 6818 1474 4026 6798 9463 5849 7322
39 3766 6891 5537 2836 7384 1560 9640 2358 2375 8791 9006 6277 9412 3955 8907 7712 7962 7013 64 444 4261 326 4653 3093 5961 9305 6926 9948 7734 3214 4936 6503 8830 501 4552 5021 1653 3504 9700
47 934 6668 9441 3385 7698 4455 5940 5945 7381 132 2531 2331 5700 5322 5366 4028 5998 7104 7493 234 982 7763 9297 3376 9144 5630 6270 658 8212 7904 7862 506 1372 2336 6911 3996 5946 399 4196 1486 3289 2716 8589 8132 5227 2565 4275
52 1466 1568 8948 7015 5156 5881 6382 1124 1059 7144 5102 5744 703 3033 9350 789 8042 8944 5059 3825 1524 9372 6878 2730 7310 9232 2714 9426 5419 5628 4056 9758 9779 7507 5094 3189 5892 8923 6342 9789 1841 4927 2885 77 7970 7166 6052 5734 2268 7424 7422 2783
41 2368 7720 2297 6151 7358 2963 4186 5226 5460 309 1740 6990 3724 2055 3392 584 5162 918 6915 7236 2411 4321 1246 6307 8525 7685 9493 7113 9225 9450 9221 2964 6745 1316 1881 4841 5667 2620 6969 4771 2681
42 586 227 1407 3914 3867 9636 5181 6211 4530 134 190 1098 597 9375 5192 1754 9278 5854 6182 1894 4373 8550 7758 4693 6768 2684 6792 4439 3012 7170 7193 3691 1311 7074 4369 892 1509 3959 5729 2273 5915 6810
42 2635 7222 4757 2482 2640 8234 8765 1760 4858 9203 8894 1228 7432 8145 7589 7663 1829 4424 8028 5825 7129 3222 6527 2662 1940 3017 2958 1528 767 9449 8853 5184 1017 6619 566 2054 990 2008 5432 1350 7153 3386
45 2922 7704 9257 416 4503 1590 1700 7367 4391 2101 6341 6859 319 2175 5045 7419 5550 8859 9008 1530 9617 9553 5098 2488 7964 9171 4154 3270 3726 3861 1086 7019 5342 2393 2731 9148 9320 7968 7938 4502 518 5836 7947 2504 3748
44 8246 5973 5247 961 3735 8872 4250 7286 5883 1872 9087 8878 5661 3846 2066 9060 2970 3616 7515 1456 6376 3204 9776 2453 8138 9711 7971 129 6080 4210 6899 9881 6339 218 3930 7770 2706 7856 4698 2915 6332 3472 6135 9914
44 5371 957 7297 7979 3921 9039 1267 6681 294 221 7299 2762 8943 7108 2124 5834 2977 1451 8762 4838 211 8313 599 4595 4853 5920 944 728 8275 9680 7512 8811 2427 3998 8219 1119 9698 5398 8986 282 265 6179 1627 4300
47 4661 9211 9727 9718 2365 2933 9019 659 952 706 6746 6902 6212 9442 1193 4857 5647 7906 7282 9043 831 6362 3662 2130 904 2975 6195 9901 1844 6373 3624 1646 5011 6239 2597 5686 978 1947 1958 9863 6041 448 2123 7965 8216 2528 5208
49 5959 2672 2091 4392 6623 598 653 9980 3411 6242 7865 9456 174 7541 7755 7291 1290 6210 6429 2576 2171 729 8630 4700 5755 1224 1216 8303 9532 8570 1755 7686 8136 7659 5709 8836 714 3588 1518 7518 8559 6358 6823 1255 788 2530 8180 2659 5723
37 6056 1577 3198 1060 8710 7894 2599 5999 721 3091 8812 8581 219 6364 9035 1002 9677 4456 5080 8094 5450 3271 7184 5095 2821 3552 4534 7285 6314 2676 1251 3223 6116 9301 3752 9557 181
48 5482 671 2202 4996 6928 1275 6258 1053 4629 4677 7239 7872 4315 5146 3532 5035 8224 2040 7059 6187 6945 6873 8796 8288 9653 5003 1741 6526 4894 4854 6700 9834 2240 1827 9503 8742 5016 1347 1470 5937 9613 7731 9723 4512 2213 3334 9527 6065
50 2758 1472 3240 3361 9361 5153 2350 3620 9907 791 5925 5105 7592 8528 2009 9842 1395 642 5405 1544 4603 2082 1664 153 7558 6991 8158 6050 7961 342 4285 162 622 1989 1328 808 7128 2884 8672 262 5725 5805 6311 5650 3653 5543 8353 4516 6865 8696
39 1579 8545 3505 9756 9702 6869 6844 4627 9898 1730 3603 6954 8639 5427 3344 9264 6403 9070 6336 8113 5616 5283 6886 1208 542 4403 5225 1997 5017 4905 6366 192 497 2041 6883 6821 9645 2668 7641
44 3709 5535 7574 9227 7394 1278 3172 8624 1239 2166 7086 7751 7660 8483 2513 8573 9833 568 713 5270 274 222 2407 2639 1565 6333 8340 9373 6825 5250 6355 1297 9620 4366 1181 1798 6012 5054 8151 2561 4875 537 2367 582
40 3183 8099 929 9538 4338 108 3919 9128 1417 3417 6464 848 1692 323 7847 5533 6486 954 751 9355 981 6111 2224 4645 8116 8684 8186 8997 9807 1164 6401 6070 6855 9146 6560 1874 4531 3988 5276 4674
49 7138 6423 5552 2146 9213 9117 8969 7929 3005 6493 3954 9235 4158 9976 7824 2643 710 603 4045 4120 4421 9098 8773 9624 536 3371 8444 2208 9944 5338 4211 6081 5004 8474 7501 3257 5719 2285 8777 6251 5275 31 5256 4237 7764 2781 3059 4977 7417
42 9822 7382 9031 7487 9942 544 4650 4607 8754 8111 431 9327 5749 3280 54 4127 2887 8604 2316 1483 5732 958 8860 3043 8702 5773 3248 7582 5494 3793 4968 6241 5589 7360 1716 44 9934 6447 8225 3279 8443 7899
31 3387 2086 1364 8927 7496 9804 6910 9899 9629 8651 7955 1708 868 2354 5093 2348 9196 2125 5643 263 2425 5493 5186 8921 3761 9639 1922 4810 8010 942 7583
46 5046 7606 6931 2890 5472 4535 2906 7323 4298 43 4205 4641 4363 8040 7328 6449 683 6352 382 512 5842 7172 6861 2111 4059 6760 9174 2246 2344 148 2023 3965 155 4816 3990 5221 7998 7616 2170 4872 5859 950 6639 362 7907 2480
52 13 2163 2583 5336 5938 1983 7191 6995 6822 2339 9989 4642 5457 9289 5434 7097 4822 2647 741 2539 6213 55 8015 4160 2464 5373 5409 9276 6400 8023 1656 6964 549 1335 6095 1200 4024 146 2089 2374 312 8393 2250 3800 2718 9900 5950 6184 2031 2532 8268 7533
47 5756 1348 6936 9606 7986 1737 304 3238 3667 7369 7401 2595 7131 3146 2188 2859 8722 2973 4371 3514 4139 4378 4492 4406 3085 6110 1471 535 1273 3915 1476 8091 8748 5437 9061 1731 661 894 2422 3354 7050 1010 5375 9650 8514 7348 2980
47 7324 994 4796 2649 2005 2755 2126 3881 1203 2744 1777 6523 2722 615 3546 569 9092 5347 2877 2833 8066 3269 1892 8926 6432 1886 101 226 9998 4372 9337 6571 3969 7749 4308 7140 2162 9903 1877 4490 8146 4981 5161 3349 2814 4707 8879
37 9988 6152 4797 2244 273 3331 7679 9147 2429 9182 6162 230 84 8222 7308 3806 6757 2739 6540 7778 3837 955 8119 3945 9432 1296 1696 3413 8079 2588 4012 2812 6577 1765 6573 3664 9438
55 9180 138 3075 4303 3025 7695 1670 7458 1499 4286 9549 6292 4795 6427 5376 6274 7812 5597 4178 7672 2913 2685 9303 3449 2056 2424 7075 7053 8242 2432 2568 6009 1789 5389 4202 268 1201 9009 6034 4073 8676 6089 4485 3224 3848 7683 4459 1396 8416 2737 1211 4339 5361 900 8636
45 1572 4581 275 1539 3704 5583 3618 1520 2218 7406 572 8249 1836 5821 6225 4519 7009 3314 3368 4743 5048 4855 7265 4934 7378 6621 8082 7133 4719 5139 4491 4233 7293 315 5452 1900 3111 7477 5196 4437 5774 764 2215 5562 8932
50 962 9111 4671 1833 816 9747 4068 3519 3702 684 7203 1865 4487 437 1679 6740 203 7352 4293 331 2724 9217 1552 6706 3886 9513 2945 6494 2521 7684 5636 807 1394 7797 433 6259 2764 5735 1529 6289 25 3015 3547 8409 9927 4590 2380 4586 3633 7260
46 7781 9447 5049 1021 1205 4084 919 489 7054 7111 8476 9056 5584 6648 4101 2465 8435 2682 7844 8780 8422 8759 6223 803 834 8396 2022 8692 2515 1984 410 8881 1982 8632 4999 5996 3842 5459 1762 5231 6397 9452 1001 5681 8805 7010
43 1999 8085 9826 5041 6819 1675 6283 4697 6703 7441 9939 3912 3176 8912 332 7407 4147 387 8115 1147 2551 8254 2372 1457 183 2484 9487 8626 5335 1992 9265 2438 6592 4993 732 5615 20 6901 6008 1801 4775 4965 1185
39 5014 3492 7511 6785 6482 779 1890 5520 8992 3040 7489 8322 5822 3320 1011 1444 4266 1389 4428 6143 8255 4417 475 917 5268 9659 9471 478 5655 9749 3732 3337 401 786 5449 6541 5657 5702 8535
50 8858 1387 6497 846 5613 9884 1597 338 1016 971 6267 3100 3427 6385 9254 4124 2924 7935 8821 3488 6024 5664 4420 376 5994 4669 5531 1403 9465 9626 9928 19 3000 6458 2773 8163 897 2987 4038 4584 2261 8002 8987 1015 769 7246 6564 4254 4789 8009
45 8598 482 8364 3856 1491 4769 4715 4144 9115 4309 2541 8076 2961 6236 3711 135 1218 1622 1168 8189 7288 5073 4128 5786 1114 1606 7932 3891 1640 6064 8856 2880 6831 5364 3526 8428 7252 1669 8685 8747 5812 2510 4479 47 7801
50 9740 8440 4951 5740 5345 3560 5182 2555 1462 4314 3722 2295 1440 1932 5570 1253 1883 4241 3110 7525 2935 2699 1319 5600 5230 4317 4146 8276 5567 461 4143 4860 4806 9519 3561 6501 5873 459 6499 3938 3014 9476 5870 2848 6161 6842 9995 1315 2406 8618
42 9106 6808 2847 4807 1139 6374 6516 3332 385 8292 9457 1897 6630 7664 83 2878 8248 2390 3390 1498 3944 9796 2508 4106 4482 6249 8156 6682 6381 1561 2180 3874 7311 2317 217 3154 1878 9878 8845 3607 3697 6513
43 3187 4322 8896 9522 9743 9263 8421 3275 4722 7878 9660 4388 1089 594 4728 5420 7554 2121 3321 9118 5581 7058 6439 1567 8972 4610 3790 2026 8199 7826 495 4007 9541 890 5145 8157 7498 349 1995 485 818 6415 5586
41 2139 8404 9850 6214 810 736 82 5860 4156 9165 9229 8646 4385 3675 4396 9815 881 8448 3686 9160 9002 1453 3343 8960 381 7823 8041 7832 5078 3217 2831 7913 1362 885 7658 5445 983 7453 9582 5549 882
32 8725 1130 3169 1862 5313 2395 4104 7891 2161 3340 6872 9173 8769 1405 8185 9736 198 2704 8355 3102 2216 490 5572 7051 6468 1478 2579 8326 7228 4850 7601 1834
39 6570 445 8654 7708 2570 5082 173 9406 3647 2843 2320 1688 9502 8347 6063 8436 1856 7276 9390 6611 1383 8497 7813 1941 524 9783 9230 8822 1384 8863 7274 3053 2117 1912 607 4790 4255 4593 3459
51 2446 7584 2830 4433 9591 6655 5128 8083 4442 9761 8006 7915 4550 926 4521 7045 9317 2373 9110 8159 5169 8345 5367 1847 1482 4829 7012 95 4080 9794 633 4843 9077 8843 3231 4868 3244 1563 3372 8403 9516 2277 4198 139 8102 7977 8084 5582 7121 9774 7319
36 8078 8453 2351 144 2195 2013 9719 9485 5228 7278 5887 3430 6412 7036 1233 2100 7076 5291 4132 1962 2560 8882 5378 9830 6353 9587 9709 7428 9611 7283 9199 1775 6126 9259 8456 6593
47 9189 6956 3937 1014 2169 2756 9076 5868 9678 4307 5424 7748 7483 841 1555 1096 5413 8260 4582 6693 7509 8329 1439 4756 5790 4164 2270 2319 7262 6087 7634 935 5858 1987 3338 3689 3676 2784 3084 1930 6201 6833 2448 7223 9971 2075 7903
41 4182 5984 8080 6237 1133 2782 6167 9394 7561 9338 468 6097 4679 5694 6948 5451 125 1853 3096 5299 1488 2695 5741 2087 1652 463 6035 6165 1077 8467 9468 7897 2072 3351 3239 7788 2703 2904 9505 8784 8360
44 389 9340 687 2459 8833 1325 1283 9238 5079 2334 3625 9851 6160 6567 4869 7345 4599 1294 965 6670 6565 2341 7803 3805 4035 7040 4086 5431 5267 6004 5745 8361 4563 1455 4620 9167 3135 1112 6907 6709 7478 7553 8092 6650
40 3423 6425 8017 7449 5751 2384 1465 1547 4589 2179 5071 8309 4657 3507 9855 3121 1320 6018 6471 1458 8348 8362 2185 494 9262 2227 7410 5043 1286 3973 4464 3792 1343 7302 9649 9605 8622 754 7505 6011
29 8172 6488 6265 5334 6416 6580 456 7464 5170 6738 7046 8122 8318 9067 5701 5290 8775 2657 8338 9609 1221 9119 9469 6877 3419 967 279 8098 4939
40 3060 3119 8934 7611 4824 5826 9754 4817 8594 6618 1521 9936 3480 8914 2832 1104 4440 9821 4835 3095 9081 1553 7035 1409 8732 3599 3113 4648 1732 705 1903 7168 7366 4932 6066 712 1633 2328 7289 856
42 9392 1048 6578 1956 7173 5483 60 3992 6278 9533 4874 739 2176 7784 3835 9689 7082 6849 8665 8826 4294 8675 1052 6323 3574 7889 2929 6739 3718 3714 742 6346 9234 8729 298 3712 7717 1209 616 587 4699 3468
48 9498 4765 4239 2769 1554 5117 8933 4672 7981 2233 4900 7835 4684 8801 5000 2818 1952 7623 7831 7044 5646 5546 775 7081 2798 7217 8269 508 179 8656 7940 6019 3593 3823 9496 4426 9201 7868 8520 8306 9962 9705 3457 8195 3645 7885 2134 5240
38 8698 8128 9445 9584 8166 9685 2965 9484 3755 4304 2673 8798 1944 74 1310 2725 7753 1825 8892 7949 7860 9844 3382 1029 5202 8490 3458 3814 5205 7479 3077 2490 4269 5663 4242 3023 3586 2778
41 8184 7794 7402 8919 2305 9286 9175 8162 5323 402 975 3465 8377 6750 1676 2590 6707 2780 4511 1314 178 7233 6696 2287 9852 4525 6334 414 3432 3880 608 5923 5194 6937 7535 4772 7562 3655 3688 5819 787
39 9960 1125 68 8052 432 7538 5218 150 3192 3544 5763 6606 7761 3986 1799 5963 6941 6701 4551 5104 3672 4614 7834 8587 6058 5708 4159 6549 867 797 1232 5341 7139 948 2269 5882 4820 951 9161
44 4078 3236 3452 2793 1807 4870 5115 8176 2279 5157 674 5406 6163 1132 4736 4533 7404 5417 7114 4148 8688 1876 2658 7912 302 6045 1190 8419 4686 4725 8664 7391 8359 2476 1506 6909 6103 5515 4020 6327 1705 3308 2143 6320
36 7186 554 8977 4507 232 1854 630 3830 141 3500 110 8330 6674 2606 1280 680 2546 2869 6134 5730 4727 5174 1013 2321 7027 8817 7819 765 2934 9945 5316 3447 7354 1951 7094 7100
45 3883 4764 49 9492 7982 1051 3557 3122 1282 3019 6036 1302 5904 8628 8008 2495 5024 986 6272 5839 557 1504 5652 418 5539 3820 9717 2307 355 424 7398 5362 5626 4041 9682 7301 1005 3066 4008 7604 8100 378 4561 2306 3970
44 3190 6330 8125 417 1410 3845 6922 3731 8746 7526 4356 6978 8638 2763 1163 911 1244 2463 8007 9996 7238 7171 5076 1613 6512 5272 6759 8563 3428 3140 6118 6805 8521 4121 2025 4608 3649 7810 2712 2385 6074 2985 6974 4594
41 4172 2698 474 7397 6402 9627 1588 8727 4703 8264 2274 9737 4856 5578 9703 3290 8616 3834 8390 3585 3983 5752 4332 9507 1088 2653 6315 440 9929 6232 8 4206 3617 7530 1843 8075 1129 2115 6832 2819 6506
38 681 78 4107 5109 9033 4983 8293 216 4069 9795 3803 3166 8668 8147 4292 872 5428 924 8814 8883 1063 214 9047 4129 2110 4847 2113 4924 4330 3789 7057 3497 3523 1617 723 5381 4296 3713
38 8424 993 5136 1704 3316 6407 4966 1758 1715 33 3114 2136 1871 5704 6824 9771 8562 5395 9655 259 7005 7298 5072 4177 7615 7218 5989 9534 2941 4604 46 562 8064 9638 8411 1318 1061 889
39 6933 9957 5077 6003 350 8003 8751 8714 8937 343 3001 5506 6874 9954 1092 3194 4906 5766 109 3629 9 9672 1068 8713 1469 1117 1763 4299 8304 2402 6140 2688 8735 242 9379 9101 695 9572 7713
27 5835 3929 1712 5528 5534 6961 837 2918 1750 4377 4809 6764 4272 6800 4019 8967 6735 4748 559 3853 1511 9387 3319 5154 6505 5111 151
33 2517 9820 9104 6093 9785 9079 462 3744 2468 1674 8365 6817 2797 1420 4263 6574 7400 1709 1935 5219 2944 9411 6742 669 1840 2740 8837 7098 7041 3843 7250 351 7602
46 8786 9872 1187 4390 1040 7636 9811 8613 5867 1138 2687 8460 2538 7462 878 3286 5480 2370 2080 8512 7346 3441 2342 1496 131 9630 1376 5422 2118 9083 454 2816 579 9479 267 1481 18 7714 8363 5936 7677 3207 1288 451 9444 5029
34 2381 9288 811 1468 2145 3050 3266 899 6112 2322 3802 6276 360 2891 3490 4100 6025 4410 6253 9902 1461 3026 5978 1713 7155 3109 4191 1584 272 6987 3200 9610 9539 5571
31 8220 6603 9662 4957 7992 9721 4183 8012 2591 530 2552 5983 353 8089 3124 7846 6192 1774 2010 6433 4109 8087 1495 5399 9566 3999 5979 6923 5872 6465 814
37 2636 4616 4246 4896 9397 8936 8418 5499 6652 2194 5975 3481 8652 9910 2548 9247 3849 5894 7809 5962 3477 3461 6048 9323 7733 1351 8866 1338 3852 6900 2696 7211 5762 2079 195 2751 8515
36 3873 8579 5967 6234 9735 4587 5066 7361 541 8741 9186 5547 7387 7355 6456 8455 4402 1870 1761 9959 7725 5943 1927 3890 8480 1213 3737 1087 6685 4711 7627 7454 423 6917 7055 6478
45 2223 8407 3968 3533 5462 4910 3757 3733 7249 7408 2838 7988 8506 2142 8316 5293 2474 4873 4375 3356 7388 1936 1094 1137 8168 3213 6850 255 1240 5980 2192 763 4333 1534 9210 2421 6602 2883 6797 6761 5569 9535 9778 3197 8640
38 7545 553 3630 5668 4386 1220 785 9825 8417 5433 1194 3780 1532 995 7942 686 7958 2153 3251 5761 5820 6414 5214 9197 449 1616 1673 9427 507 5554 9085 6949 1101 2081 1072 5088 3577 823
34 1386 9246 5492 5794 9806 3671 9625 3186 8201 2853 7392 9437 2001 5935 6268 5687 3494 7863 1172 6386 6010 1744 6345 1452 2369 2151 4335 5662 56 303 3824 3329 9239 4429
32 3922 3145 6227 8432 5966 8356 2472 968 1923 9831 1994 35 5302 7202 8988 223 6354 8591 3759 4226 700 8295 5590 9999 7353 4787 7573 6020 4876 945 5143 2210
31 3831 9284 9243 7787 6970 9352 7084 5148 3949 4355 3203 888 5911 2083 3791 4153 7596 529 5869 2534 8915 914 6175 8908 1173 5040 583 8804 2112 3255 657
34 5260 5939 3878 5669 8547 1429 6073 443 5522 7158 5052 9078 8263 6300 648 3453 2033 4919 3377 2671 9252 9283 7909 9209 5248 3359 840 5617 591 3433 6589 6108 2655 7600
41 3117 5262 1896 2855 747 6030 5400 2147 7980 8865 1542 1222 7379 6328 8783 2061 4559 6705 9917 5329 1097 5840 777 7953 6895 3525 8190 999 5295 3125 9641 8331 3916 2861 3597 3739 5019 5155 7101 2694 8770
45 691 602 1595 6461 9951 5113 5112 3950 3264 7742 4005 7715 4454 3745 7629 5976 893 3742 4844 6287 8144 8861 3360 430 6406 3034 895 1866 6462 1571 7836 613 2792 6712 5733 6827 9401 8048 4626 9775 4558 7389 5190 9486 2065
41 2849 7828 5944 4318 4217 9751 8108 1095 8564 679 7960 383 5748 4889 5403 8760 6171 5281 2314 4382 6502 6743 6451 6837 3799 6104 2070 8271 1884 9269 9357 269 7567 2392 8179 8112 6838 1279 9679 205 2902
42 8044 6770 3693 1556 7638 3659 9219 6790 3323 6520 9909 3917 308 5010 8235 980 8004 8466 6033 9720 1023 1920 2842 4161 8871 66 4970 5037 5287 5614 8429 2592 6247 9693 1065 8021 9245 2074 3469 7486 5009 5538
39 9014 4494 773 6888 9646 3855 3762 9258 7668 5353 6437 2613 9491 2064 619 7876 8013 9090 1158 1915 8855 5063 2617 1249 2237 3437 9564 1169 887 241 8800 2602 9846 6803 9341 2196 4859 6774 5101
38 6096 6950 6257 4662 5965 6155 2430 3716 6027 8381 6616 2745 5296 5757 5603 2928 8857 9116 4547 3771 8142 5767 2982 6226 2888 4232 7546 3895 8414 1578 1523 97 8452 3787 5558 3995 9335 7618
38 6781 8724 6543 8468 5149 182 7529 3679 2042 9273 3610 7870 8873 4137 6331 1526 4988 1880 6728 3011 6684 5122 585 3888 3753 7212 1918 6302 5884 4103 4010 1955 5977 5641 1356 3206 2199 4624
35 5604 5062 2607 2241 5213 8481 8053 4784 7952 1996 4116 8920 8478 8154 3341 1120 3304 5068 4460 21 2986 7188 2092 5438 1968 838 3301 8373 6079 2663 1623 3378 4441 8868 4982
34 7653 9215 5673 9887 8903 4802 6973 9150 6125 7880 435 2477 8627 3865 4888 6138 8296 8611 237 1056 8109 3054 802 1391 7676 3293 6863 6789 1084 5929 5902 1447 632 5764
36 3491 746 2182 7984 8566 4717 5566 3866 6000 2057 2622 4395 9172 5053 8840 9500 1309 8284 239 1459 3778 7077 3646 6851 733 8319 4752 4879 9294 3394 7547 827 3307 9631 9377 7644
26 6130 1965 2993 8297 3027 3524 1448 515 9955 964 3299 1797 1074 2735 1861 5279 6999 3310 609 4992 8279 6228 3180 2697 3535 1702
32 6812 8406 8523 5467 1779 7798 7985 8445 3346 8281 606 6244 9880 87 925 2255 4379 1128 1261 5265 9800 3063 4213 5114 6539 2692 7500 5899 9528 9922 4133 6132
28 577 3384 2954 8586 7295 1855 2144 8954 5138 7375 3587 2937 9368 7334 3631 8659 9222 7321 7696 7893 2015 4955 6384 9525 7732 2650 8662 4668
33 333 2209 3256 8669 1425 1148 2693 2506 678 81 5229 7359 2794 5878 670 5311 1899 4212 9466 9906 7247 8963 9448 2077 6380 2708 112 8310 4070 1400 3142 2361 725
32 5634 1751 7329 3306 5333 4200 2167 5796 2637 4734 9854 5235 8593 4431 4435 7213 5332 133 673 539 9024 3692 2256 407 6078 2200 976 4786 3550 7095 3749 469
28 8854 4469 3324 5553 8120 3295 9974 2569 6049 2435 2409 6559 9883 7651 70 3982 8844 6719 6457 2428 7859 8787 7069 5541 5806 7585 6443 7373
30 1271 4751 7922 3278 2752 4152 3680 6753 4903 2439 3858 1895 4432 465 2097 7091 7423 4344 5259 3502 143 231 2540 5775 6653 6953 6466 5957 247 3007
28 7337 8207 9131 3383 2418 2767 9139 5436 8726 3644 6389 6971 1477 6344 3794 2062 2656 1960 3241 3923 6749 5800 1662 7692 7556 2034 4800 4244
39 7426 698 8971 2604 7335 7253 7579 4834 171 8454 9272 927 6535 8469 1693 257 2547 6862 822 4515 7370 2408 5352 3199 3132 1507 7199 1830 4280 3370 8764 903 6905 2988 4861 8674 5754 6144 3572
26 8980 6982 1846 8183 3656 1192 8438 3455 5020 4867 250 2450 2027 7024 9818 413 6820 3020 4617 643 1726 6220 1736 52 4738 7425
39 1717 601 9688 3772 7042 3746 4560 7383 2394 164 1593 6744 743 3018 1431 6989 1166 1747 4430 3136 5808 8761 9931 9312 6930 8999 1858 9671 3885 6734 9946 7325 748 3591 2443 2553 4505 9924 3369
29 9581 8551 6319 4122 9966 6150 2815 4655 1907 5351 2770 6286 5253 2707 974 4062 2867 8294 8813 2184 8842 1103 1636 8283 6977 9419 6617 8900 8984
35 1711 8090 9460 8170 2512 9042 3373 6815 1795 397 7488 8609 1243 6470 4044 8642 3908 2558 8499 5951 4591 2020 3795 7532 1873 3801 5718 264 8129 6924 2727 2447 481 774 3445
29 9145 286 4922 8740 5721 4046 2535 3380 1592 6500 9892 8423 4938 1980 2230 7503 1329 5768 3127 3065 6208 4312 6968 8667 4094 8571 6736 2598 4972
37 9742 3076 7494 5941 7251 3987 4151 663 5713 5125 1998 2410 4025 5278 5502 871 3774 5601 7275 9979 6378 2577 6829 7043 1188 3108 2251 1819 6607 2889 4438 7292 6039 5931 4499 5871 9333
33 7833 5354 8447 1339 8286 6463 487 9382 5210 62 4942 9599 1784 6205 9059 3905 9308 7455 5397 4941 6460 2720 907 600 2500 213 4277 9673 4656 4555 4509 4865 2886
25 3425 1893 191 1036 6871 9967 1042 1009 6919 9240 7869 3130 1694 9839 9871 5847 1406 32 4943 6846 5737 3409 2564 3046 1450
28 9832 9054 2496 6347 7120 9773 2258 3326 8517 7580 4370 2802 3506 3515 71 5108 7682 3920 169 2219 8614 9103 8491 4389 1480 1058 2641 5264
25 5455 8946 6669 534 2332 1614 5580 6099 5742 5274 943 7304 7610 1189 4489 4544 7990 5411 7973 6484 947 6530 2315 9040 5631
25 1574 3611 6062 4170 1037 5612 2212 5318 1093 610 771 4185 4247 4289 5100 3398 9921 8047 2705 9007 3010 1223 5947 8135 6204
22 7822 1599 4994 6748 5542 9097 6551 7467 6309 2919 4638 8917 258 2852 8446 7549 1914 245 4112 830 4493 5212
32 7320 4466 9692 8568 4754 6992 2557 3612 1515 2912 9391 2609 9565 6369 800 7671 7765 1360 8253 9575 1589 8956 9068 2817 2845 7018 2527 2949 2593 8758 7881 2174
33 9351 2452 6683 3833 5903 1186 2252 434 593 3537 8375 675 1342 3715 2403 1671 6711 7257 6813 6085 7989 7919 1145 3495 9050 4125 618 17 4498 7476 4886 6894 1159
30 1785 9328 8504 1365 3471 3150 817 9120 5783 7773 3272 6446 1485 9314 7390 3105 7727 1564 4825 8989 3893 9135 3028 4723 9707 3897 5648 2972 6725 2702
28 3660 9168 6638 8653 6778 8885 7482 5 740 7691 6994 22 4341 6037 2909 8245 7267 9072 3879 8149 1401 305 4676 4113 3047 7514 8534 7563
27 2772 5524 4349 8049 8193 1985 1969 555 5637 6979 9853 3770 8974 5474 4898 3364 9862 2355 7701 7290 157 9292 3512 645 8196 5340 7225
24 7277 280 626 276 5127 4279 2633 6876 5585 3703 6566 6779 6676 7768 8649 356 6697 9593 5592 9309 5848 7612 1905 7924
37 2440 4974 9764 7216 7475 8565 7581 1863 6102 9129 4739 408 9302 184 380 3185 3683 8025 4334 4818 9664 3134 9179 3464 2666 1070 9588 9810 6726 8599 5487 3728 8198 9701 6043 488 8030
24 6340 5325 7539 7395 5917 4573 2048 5726 3049 941 3934 9990 4190 3887 6015 833 4945 1402 9158 9280 6174 6026 664 6453
25 9141 6021 2803 1734 330 5310 9268 5224 2154 7110 7240 5510 400 3229 452 3035 7645 6454 6814 3819 3981 1838 57 4814 1537
29 3216 8607 3288 1312 8177 7115 4408 8884 4948 4673 3854 4004 9949 7038 1370 4527 7743 4201 3191 7830 5579 9490 6741 4637 7779 8975 2292 646 307
29 9413 4141 377 6154 4166 7448 5564 7183 3951 9322 2036 1677 6221 3170 4724 9499 7597 790 7950 6612 4667 877 1352 3609 4839 96 2290 9551 285
31 493 5160 5147 4236 1842 336 928 8906 1600 1430 7016 2018 956 9571 1149 5862 1219 3254 2071 7536 3797 4284 1948 9300 3941 5720 4258 4623 7438 5495 4763
17 5588 5370 7205 9052 7976 3164 970 3669 7896 3821 4562 3678 9482 8939 8352 2984 2882
23 9888 4049 4501 328 2715 7481 1926 1197 5990 1276 3847 9803 8679 6553 689 2509 5314 9793 5852 7312 4713 5972 866
19 1408 9594 5801 8590 3503 3044 906 979 5307 5058 8577 2983 2542 1007 7815 7000 4612 8231 7491
16 2098 9130 8130 1210 6348 682 117 6312 7078 1032 4040 3330 6651 6773 6367 8691
12 4904 7179 1062 1745 3291 4227 589 1804 2129 1012 5439 5343
18 7851 558 8492 7380 8693 5423 6966 7637 1198 5303 2433 8828 4575 7703 5508 8602 9704 1085
21 2600 4989 9417 2330 4909 7161 2966 6767 9963 8462 8239 5396 2470 2158 111 4095 8258 5412 8106 5497 7620
23 9159 5777 1492 2335 1976 3623 6016 1612 2106 996 3195 9324 3882 734 3262 8413 3622 3246 8137 580 9877 4819 471
15 4768 6897 7421 5997 7230 4716 6657 4323 7598 6218 1127 2892 4483 2280 8215
25 7080 9155 4057 8733 3932 1260 5654 7842 9540 7866 8673 4452 3777 1427 4652 886 4383 510 832 8807 6156 5695 5485 9683 7143
16 3592 3775 6720 5529 8261 9095 5005 5610 393 3871 36 4193 9436 9548 636 6098
16 4115 5326 2765 9166 2469 1772 2353 4248 6794 4278 6299 1344 2489 794 9781 565
12 7643 8644 1030 548 3476 9632 1421 3707 2746 5912 2242 6686
13 8544 3562 5130 9073 9190 4933 3836 5478 8790 3558 2232 9044 2788
22 4967 3339 3333 3781 6620 6445 4622 4053 3242 7338 8251 2039 6515 2243 3548 1214 8507 345 8426 5027 8578 1887
13 2586 7609 4400 8820 7723 1293 6985 5188 6643 1770 8256 720 1602
10 3128 3099 2860 8063 3907 4628 3783 4621 9362 4145
13 3972 9470 2813 8952 5116 2323 4567 8257 3443 4313 9622 5176 7468
14 9861 8394 5914 40 9933 5895 627 6421 220 8924 3997 1917 7931 3212
14 7245 7613 4474 479 2037 1080 8530 2841 4001 738 6658 6395 3651 243
16 654 3782 5185 665 1024 1776 6379 6866 4745 106 4799 4264 8206 4504 4892 5828
19 3516 9913 7707 4195 873 504 5683 8410 9393 4931 4110 7450 7531 5282 2014 2114 6375 5727 5479
19 7136 3590 1035 8227 3051 6231 1398 4009 1217 473 1340 5390 1028 3086 1493 2426 7443 3705 2981
10 4114 1641 9248 5555 2777 3598 6459 7543 6556 3267
10 6613 2417 3482 9568 2396 229 2701 768 6826 9745
15 6885 9282 6640 34 2263 7699 2578 1380 2801 4730 4221 2774 1258 8848 261
13 1808 3877 1113 8841 4034 421 9428 4181 53 2391 2536 6361 793
8 1753 159 4632 4660 6168 9669 7177 2236
4 9371 9194 9200 6032
6 6229 9440 8366 551 9251 850
6 3249 1938 1573 9787 7011 9559
8 7995 8121 4481 9506 502 3696 605 2221
6 7576 9561 1066 9304 1250 7721
8 3123 3265 5195 4803 2012 4006 4480 4777
6 102 2191 2766 4099 1964 4249
6 4935 8315 6475 1818 5516 3405
6 7883 6879 9037 3643 5377 5632
6 4189 5955 188 9755 7744 2479
7 295 8546 2864 7439 3640 7552 4214
4 42 9038 3701 7331
7 7418 6791 726 9202 656 2 9408
6 2265 5383 436 8400 7219 16
4 4052 1143 2795 6765
4 306 9925 1817 1330
1 3042
1 4065
1 3153
1 3511
0
0
0
0
0
0
0
0
0
0
0
0
0
0
0
0
0
0
0
0
0
0
0
0
0
0
0
0
0
0
0
0
0
0
0
0
0
0
0
0
0
0
0
0
